;Generated with Cura_SteamEngine 15.01
; Default start code
G28 ; Home extruder
G1 Z15 F900
M107 ; Turn off fan
G90 ; Absolute positioning
M82 ; Extruder in absolute mode
M190 S50
; Activate all used extruder
M104 T0 S220
G92 E0 ; Reset extruder position
; Wait for all used extruders to reach temperature
M109 T0 S220
;Layer count: 3
;LAYER:0
M107
G0 F6000 X138.673 Y138.384 Z0.200
;TYPE:SKIRT
G1 F1800 X139.069 Y138.010 E0.02717
G1 X139.477 Y137.651 E0.05429
G1 X139.898 Y137.303 E0.08154
G1 X140.332 Y136.970 E0.10883
G1 X140.771 Y136.655 E0.13579
G1 X141.228 Y136.351 E0.16317
G1 X141.691 Y136.064 E0.19035
G1 X142.163 Y135.793 E0.21750
G1 X142.644 Y135.538 E0.24466
G1 X143.138 Y135.297 E0.27208
G1 X143.637 Y135.076 E0.29931
G1 X144.136 Y134.872 E0.32621
G1 X144.646 Y134.684 E0.35332
G1 X145.165 Y134.512 E0.38060
G1 X145.692 Y134.357 E0.40801
G1 X146.219 Y134.222 E0.43515
G1 X146.749 Y134.105 E0.46223
G1 X147.286 Y134.004 E0.48949
G1 X147.825 Y133.922 E0.51669
G1 X148.363 Y133.859 E0.54371
G1 X148.906 Y133.812 E0.57090
G1 X149.455 Y133.785 E0.59833
G1 X149.999 Y133.775 E0.62547
G1 X150.543 Y133.785 E0.65262
G1 X151.091 Y133.812 E0.67999
G1 X151.634 Y133.859 E0.70718
G1 X152.172 Y133.922 E0.73421
G1 X152.711 Y134.004 E0.76141
G1 X153.248 Y134.105 E0.78867
G1 X153.778 Y134.222 E0.81575
G1 X154.305 Y134.357 E0.84289
G1 X154.832 Y134.512 E0.87029
G1 X155.351 Y134.684 E0.89757
G1 X155.859 Y134.872 E0.92459
G1 X156.361 Y135.076 E0.95163
G1 X156.860 Y135.298 E0.97888
G1 X157.353 Y135.538 E1.00623
G1 X157.834 Y135.793 E1.03339
G1 X158.306 Y136.064 E1.06055
G1 X158.769 Y136.351 E1.08772
G1 X159.224 Y136.654 E1.11500
G1 X159.666 Y136.970 E1.14210
G1 X160.101 Y137.305 E1.16950
G1 X160.520 Y137.651 E1.19661
G1 X160.926 Y138.008 E1.22358
G1 X161.325 Y138.384 E1.25093
G1 X161.709 Y138.772 E1.27816
G1 X162.081 Y139.171 E1.30538
G1 X162.437 Y139.584 E1.33258
G1 X162.780 Y140.007 E1.35975
G1 X163.107 Y140.440 E1.38682
G1 X163.421 Y140.886 E1.41404
G1 X163.721 Y141.344 E1.44135
G1 X164.004 Y141.811 E1.46859
G1 X164.271 Y142.286 E1.49578
G1 X164.520 Y142.766 E1.52276
G1 X164.757 Y143.260 E1.55009
G1 X164.975 Y143.761 E1.57735
G1 X165.176 Y144.267 E1.60451
G1 X165.358 Y144.777 E1.63153
G1 X165.527 Y145.297 E1.65881
G1 X165.676 Y145.826 E1.68623
G1 X165.806 Y146.350 E1.71316
G1 X165.921 Y146.884 E1.74041
G1 X166.016 Y147.421 E1.76762
G1 X166.093 Y147.958 E1.79469
G1 X166.154 Y148.504 E1.82210
G1 X166.194 Y149.046 E1.84921
G1 X166.217 Y149.591 E1.87642
G1 X166.221 Y150.135 E1.90357
G1 X166.208 Y150.679 E1.93071
G1 X166.176 Y151.224 E1.95795
G1 X166.126 Y151.766 E1.98511
G1 X166.057 Y152.312 E2.01256
G1 X165.970 Y152.846 E2.03956
G1 X165.867 Y153.379 E2.06664
G1 X165.744 Y153.912 E2.09393
G1 X165.603 Y154.442 E2.12129
G1 X165.444 Y154.964 E2.14851
G1 X165.269 Y155.477 E2.17556
G1 X165.077 Y155.986 E2.20270
G1 X164.868 Y156.490 E2.22992
G1 X164.640 Y156.987 E2.25720
G1 X164.398 Y157.473 E2.28428
G1 X164.138 Y157.955 E2.31161
G1 X163.863 Y158.423 E2.33869
G1 X163.574 Y158.883 E2.36579
G1 X163.264 Y159.339 E2.39330
G1 X162.944 Y159.778 E2.42040
G1 X162.611 Y160.204 E2.44738
G1 X162.262 Y160.621 E2.47451
G1 X161.895 Y161.032 E2.50200
G1 X161.516 Y161.425 E2.52924
G1 X161.130 Y161.802 E2.55616
G1 X160.727 Y162.170 E2.58338
G1 X160.312 Y162.524 E2.61060
G1 X159.884 Y162.864 E2.63787
G1 X159.444 Y163.190 E2.66519
G1 X158.995 Y163.500 E2.69241
G1 X158.540 Y163.792 E2.71938
G1 X158.071 Y164.072 E2.74663
G1 X157.592 Y164.336 E2.77392
G1 X157.111 Y164.581 E2.80085
G1 X156.616 Y164.813 E2.82812
G1 X156.108 Y165.029 E2.85566
G1 X155.606 Y165.223 E2.88251
G1 X155.091 Y165.404 E2.90975
G1 X154.569 Y165.566 E2.93702
G1 X154.044 Y165.711 E2.96419
G1 X153.511 Y165.838 E2.99152
G1 X152.980 Y165.947 E3.01857
G1 X152.445 Y166.037 E3.04563
G1 X151.905 Y166.111 E3.07283
G1 X151.327 Y166.170 E3.10181
G1 X150.303 Y166.221 E3.15296
G1 X149.695 Y166.221 E3.18330
G1 X148.670 Y166.170 E3.23450
G1 X148.092 Y166.111 E3.26348
G1 X147.551 Y166.037 E3.29073
G1 X147.018 Y165.947 E3.31769
G1 X146.486 Y165.838 E3.34479
G1 X145.953 Y165.711 E3.37212
G1 X145.430 Y165.566 E3.39920
G1 X144.907 Y165.404 E3.42652
G1 X144.391 Y165.223 E3.45380
G1 X143.887 Y165.028 E3.48076
G1 X143.382 Y164.813 E3.50814
G1 X142.888 Y164.581 E3.53537
G1 X142.405 Y164.336 E3.56239
G1 X141.926 Y164.072 E3.58968
G1 X141.457 Y163.792 E3.61693
G1 X141.002 Y163.500 E3.64390
G1 X140.553 Y163.190 E3.67112
G1 X140.111 Y162.862 E3.69858
G1 X139.684 Y162.522 E3.72581
G1 X139.273 Y162.171 E3.75278
G1 X138.869 Y161.804 E3.78001
G1 X138.479 Y161.423 E3.80721
G1 X138.103 Y161.032 E3.83427
G1 X137.737 Y160.623 E3.86165
G1 X137.386 Y160.204 E3.88892
G1 X137.053 Y159.778 E3.91590
G1 X136.731 Y159.336 E3.94318
G1 X136.424 Y158.883 E3.97048
G1 X136.136 Y158.427 E3.99739
G1 X135.859 Y157.955 E4.02469
G1 X135.599 Y157.473 E4.05202
G1 X135.357 Y156.987 E4.07910
G1 X135.129 Y156.490 E4.10638
G1 X134.920 Y155.986 E4.13360
G1 X134.728 Y155.477 E4.16075
G1 X134.552 Y154.960 E4.18799
G1 X134.394 Y154.438 E4.21520
G1 X134.255 Y153.917 E4.24210
G1 X134.131 Y153.383 E4.26945
G1 X134.027 Y152.846 E4.29674
G1 X133.939 Y152.308 E4.32394
G1 X133.872 Y151.766 E4.35119
G1 X133.821 Y151.228 E4.37815
G1 X133.789 Y150.679 E4.40558
G1 X133.776 Y150.135 E4.43273
G1 X133.780 Y149.591 E4.45987
G1 X133.803 Y149.042 E4.48729
G1 X133.844 Y148.504 E4.51421
G1 X133.903 Y147.962 E4.54141
G1 X133.981 Y147.421 E4.56868
G1 X134.076 Y146.884 E4.59588
G1 X134.191 Y146.350 E4.62313
G1 X134.322 Y145.822 E4.65028
G1 X134.472 Y145.297 E4.67752
G1 X134.637 Y144.781 E4.70454
G1 X134.821 Y144.267 E4.73178
G1 X135.024 Y143.758 E4.75912
G1 X135.241 Y143.260 E4.78622
G1 X135.475 Y142.770 E4.81331
G1 X135.728 Y142.282 E4.84074
G1 X135.994 Y141.811 E4.86772
G1 X136.276 Y141.344 E4.89494
G1 X136.577 Y140.886 E4.92228
G1 X136.888 Y140.443 E4.94929
G1 X137.217 Y140.007 E4.97654
G1 X137.562 Y139.582 E5.00385
G1 X137.918 Y139.171 E5.03097
G1 X138.287 Y138.772 E5.05809
G1 X138.673 Y138.384 E5.08539
G0 F6000 X139.022 Y138.742
G1 F1800 X139.406 Y138.379 E5.11176
G1 X139.801 Y138.032 E5.13799
G1 X140.209 Y137.694 E5.16442
G1 X140.630 Y137.372 E5.19086
G1 X141.056 Y137.067 E5.21700
G1 X141.498 Y136.771 E5.24354
G1 X141.947 Y136.494 E5.26986
G1 X142.405 Y136.231 E5.29621
G1 X142.871 Y135.984 E5.32252
G1 X143.350 Y135.750 E5.34912
G1 X143.833 Y135.536 E5.37548
G1 X144.317 Y135.339 E5.40155
G1 X144.812 Y135.156 E5.42788
G1 X145.314 Y134.989 E5.45427
G1 X145.825 Y134.840 E5.48083
G1 X146.336 Y134.709 E5.50714
G1 X146.849 Y134.595 E5.53336
G1 X147.370 Y134.497 E5.55981
G1 X147.892 Y134.418 E5.58615
G1 X148.413 Y134.356 E5.61233
G1 X148.940 Y134.311 E5.63871
G1 X149.471 Y134.284 E5.66524
G1 X149.999 Y134.276 E5.69158
G1 X150.527 Y134.284 E5.71793
G1 X151.057 Y134.311 E5.74441
G1 X151.584 Y134.356 E5.77079
G1 X152.105 Y134.418 E5.79697
G1 X152.627 Y134.497 E5.82331
G1 X153.148 Y134.595 E5.84976
G1 X153.661 Y134.709 E5.87598
G1 X154.172 Y134.840 E5.90229
G1 X154.683 Y134.989 E5.92885
G1 X155.185 Y135.156 E5.95524
G1 X155.678 Y135.338 E5.98146
G1 X156.166 Y135.536 E6.00774
G1 X156.649 Y135.751 E6.03411
G1 X157.126 Y135.984 E6.06060
G1 X157.592 Y136.231 E6.08691
G1 X158.050 Y136.494 E6.11326
G1 X158.499 Y136.771 E6.13958
G1 X158.939 Y137.065 E6.16598
G1 X159.368 Y137.372 E6.19230
G1 X159.790 Y137.696 E6.21884
G1 X160.196 Y138.032 E6.24514
G1 X160.589 Y138.378 E6.27126
G1 X160.976 Y138.742 E6.29776
G1 X161.348 Y139.118 E6.32415
G1 X161.708 Y139.505 E6.35052
G1 X162.054 Y139.905 E6.37691
G1 X162.386 Y140.315 E6.40323
G1 X162.703 Y140.735 E6.42948
G1 X163.007 Y141.167 E6.45583
G1 X163.298 Y141.610 E6.48228
G1 X163.573 Y142.063 E6.50872
G1 X163.831 Y142.523 E6.53503
G1 X164.073 Y142.989 E6.56123
G1 X164.302 Y143.468 E6.58771
G1 X164.513 Y143.953 E6.61410
G1 X164.708 Y144.444 E6.64046
G1 X164.885 Y144.938 E6.66664
G1 X165.048 Y145.442 E6.69307
G1 X165.193 Y145.954 E6.71961
G1 X165.319 Y146.462 E6.74573
G1 X165.430 Y146.980 E6.77216
G1 X165.522 Y147.501 E6.79855
G1 X165.597 Y148.021 E6.82476
G1 X165.656 Y148.550 E6.85132
G1 X165.695 Y149.076 E6.87763
G1 X165.718 Y149.604 E6.90400
G1 X165.721 Y150.131 E6.93029
G1 X165.709 Y150.659 E6.95664
G1 X165.677 Y151.186 E6.98298
G1 X165.629 Y151.712 E7.00933
G1 X165.562 Y152.241 E7.03594
G1 X165.478 Y152.758 E7.06207
G1 X165.378 Y153.275 E7.08834
G1 X165.259 Y153.792 E7.11481
G1 X165.122 Y154.305 E7.14130
G1 X164.968 Y154.810 E7.16764
G1 X164.799 Y155.308 E7.19387
G1 X164.612 Y155.801 E7.22018
G1 X164.409 Y156.290 E7.24659
G1 X164.189 Y156.772 E7.27303
G1 X163.954 Y157.243 E7.29929
G1 X163.702 Y157.710 E7.32576
G1 X163.436 Y158.164 E7.35201
G1 X163.156 Y158.610 E7.37829
G1 X162.855 Y159.051 E7.40492
G1 X162.545 Y159.476 E7.43117
G1 X162.222 Y159.889 E7.45733
G1 X161.884 Y160.294 E7.48364
G1 X161.528 Y160.692 E7.51029
G1 X161.161 Y161.073 E7.53668
G1 X160.786 Y161.438 E7.56279
G1 X160.396 Y161.795 E7.58916
G1 X159.994 Y162.138 E7.61553
G1 X159.580 Y162.467 E7.64191
G1 X159.153 Y162.783 E7.66841
G1 X158.718 Y163.084 E7.69480
G1 X158.277 Y163.367 E7.72095
G1 X157.822 Y163.639 E7.74739
G1 X157.358 Y163.894 E7.77381
G1 X156.891 Y164.131 E7.79993
G1 X156.412 Y164.356 E7.82634
G1 X155.920 Y164.565 E7.85301
G1 X155.433 Y164.753 E7.87905
G1 X154.934 Y164.929 E7.90545
G1 X154.428 Y165.086 E7.93188
G1 X153.919 Y165.227 E7.95823
G1 X153.403 Y165.350 E7.98470
G1 X152.888 Y165.455 E8.01092
G1 X152.369 Y165.543 E8.03718
G1 X151.846 Y165.615 E8.06352
G1 X151.290 Y165.671 E8.09140
G1 X150.291 Y165.721 E8.14130
G1 X149.708 Y165.721 E8.17039
G1 X148.708 Y165.671 E8.22034
G1 X148.151 Y165.615 E8.24827
G1 X147.627 Y165.543 E8.27466
G1 X147.110 Y165.455 E8.30082
G1 X146.594 Y165.350 E8.32709
G1 X146.078 Y165.227 E8.35356
G1 X145.571 Y165.086 E8.37981
G1 X145.064 Y164.929 E8.40629
G1 X144.564 Y164.753 E8.43273
G1 X144.075 Y164.565 E8.45887
G1 X143.586 Y164.356 E8.48540
G1 X143.107 Y164.132 E8.51178
G1 X142.639 Y163.894 E8.53798
G1 X142.175 Y163.639 E8.56439
G1 X141.720 Y163.367 E8.59084
G1 X141.279 Y163.084 E8.61698
G1 X140.844 Y162.783 E8.64337
G1 X140.416 Y162.466 E8.66995
G1 X140.002 Y162.136 E8.69636
G1 X139.604 Y161.796 E8.72247
G1 X139.212 Y161.440 E8.74889
G1 X138.834 Y161.071 E8.77525
G1 X138.470 Y160.692 E8.80146
G1 X138.115 Y160.296 E8.82800
G1 X137.775 Y159.889 E8.85445
G1 X137.452 Y159.476 E8.88061
G1 X137.140 Y159.049 E8.90700
G1 X136.843 Y158.610 E8.93344
G1 X136.563 Y158.166 E8.95963
G1 X136.295 Y157.710 E8.98602
G1 X136.043 Y157.243 E9.01249
G1 X135.808 Y156.772 E9.03875
G1 X135.588 Y156.290 E9.06518
G1 X135.385 Y155.801 E9.09160
G1 X135.198 Y155.308 E9.11791
G1 X135.028 Y154.807 E9.14430
G1 X134.875 Y154.301 E9.17067
G1 X134.740 Y153.795 E9.19680
G1 X134.620 Y153.278 E9.22328
G1 X134.519 Y152.758 E9.24971
G1 X134.434 Y152.237 E9.27604
G1 X134.369 Y151.712 E9.30244
G1 X134.320 Y151.190 E9.32859
G1 X134.288 Y150.659 E9.35513
G1 X134.276 Y150.131 E9.38148
G1 X134.279 Y149.604 E9.40777
G1 X134.302 Y149.072 E9.43434
G1 X134.342 Y148.550 E9.46046
G1 X134.399 Y148.025 E9.48681
G1 X134.475 Y147.501 E9.51322
G1 X134.567 Y146.980 E9.53962
G1 X134.678 Y146.462 E9.56605
G1 X134.805 Y145.950 E9.59237
G1 X134.950 Y145.442 E9.61872
G1 X135.111 Y144.942 E9.64493
G1 X135.289 Y144.444 E9.67131
G1 X135.485 Y143.950 E9.69783
G1 X135.696 Y143.468 E9.72408
G1 X135.923 Y142.993 E9.75034
G1 X136.168 Y142.520 E9.77692
G1 X136.426 Y142.063 E9.80310
G1 X136.699 Y141.610 E9.82949
G1 X136.991 Y141.167 E9.85596
G1 X137.292 Y140.738 E9.88210
G1 X137.611 Y140.315 E9.90854
G1 X137.945 Y139.903 E9.93500
G1 X138.290 Y139.505 E9.96127
G1 X138.648 Y139.118 E9.98758
G1 X139.022 Y138.742 E10.01403
G1 F2400 E2.01403
G0 F6000 X141.823 Y141.598
;TYPE:WALL-INNER
G1 F2400 E10.01403
G1 F1800 X142.388 Y141.083 E10.05218
G1 X143.014 Y140.584 E10.09211
G1 X143.663 Y140.135 E10.13149
G1 X144.326 Y139.740 E10.16999
G1 X145.026 Y139.383 E10.20919
G1 X145.763 Y139.069 E10.24916
G1 X146.503 Y138.810 E10.28827
G1 X147.278 Y138.597 E10.32837
G1 X148.045 Y138.440 E10.36743
G1 X148.831 Y138.335 E10.40699
G1 X149.601 Y138.283 E10.44550
G1 X149.999 Y138.276 E10.46536
G1 X150.791 Y138.303 E10.50489
G1 X151.582 Y138.384 E10.54456
G1 X152.342 Y138.513 E10.58302
G1 X153.116 Y138.699 E10.62274
G1 X153.851 Y138.928 E10.66114
G1 X154.605 Y139.220 E10.70148
G1 X155.307 Y139.547 E10.74012
G1 X155.992 Y139.924 E10.77913
G1 X156.675 Y140.363 E10.81963
G1 X157.307 Y140.833 E10.85893
G1 X157.888 Y141.328 E10.89701
G1 X158.469 Y141.895 E10.93751
G1 X158.978 Y142.463 E10.97556
G1 X159.478 Y143.103 E11.01608
G1 X159.920 Y143.755 E11.05538
G1 X160.305 Y144.413 E11.09341
G1 X160.498 Y144.785 E11.11432
G1 X160.824 Y145.501 E11.15357
G1 X161.094 Y146.217 E11.19175
G1 X161.329 Y146.992 E11.23215
G1 X161.507 Y147.762 E11.27158
G1 X161.631 Y148.539 E11.31083
G1 X161.702 Y149.322 E11.35006
G1 X161.721 Y150.086 E11.38819
G1 X161.687 Y150.894 E11.42853
G1 X161.601 Y151.678 E11.46788
G1 X161.467 Y152.432 E11.50609
G1 X161.275 Y153.204 E11.54578
G1 X161.037 Y153.946 E11.58465
G1 X160.889 Y154.338 E11.60556
G1 X160.585 Y155.036 E11.64354
G1 X160.223 Y155.735 E11.68281
G1 X159.814 Y156.410 E11.72219
G1 X159.346 Y157.073 E11.76268
G1 X158.849 Y157.687 E11.80209
G1 X158.331 Y158.245 E11.84007
G1 X157.759 Y158.786 E11.87935
G1 X157.135 Y159.301 E11.91972
G1 X156.502 Y159.754 E11.95855
G1 X155.827 Y160.171 E11.99813
G1 X155.128 Y160.540 E12.03757
G1 X154.429 Y160.853 E12.07578
G1 X153.313 Y161.244 E12.13477
G1 X152.543 Y161.442 E12.17444
G1 X151.752 Y161.590 E12.21459
G1 X150.993 Y161.681 E12.25272
G1 X150.191 Y161.721 E12.29279
G1 X149.004 Y161.681 E12.35204
G1 X148.222 Y161.587 E12.39133
G1 X147.467 Y161.445 E12.42966
G1 X146.707 Y161.250 E12.46881
G1 X145.959 Y161.004 E12.50809
G1 X145.213 Y160.701 E12.54826
G1 X144.499 Y160.352 E12.58791
G1 X143.817 Y159.960 E12.62716
G1 X143.172 Y159.531 E12.66580
G1 X142.558 Y159.058 E12.70447
G1 X141.955 Y158.528 E12.74452
G1 X141.406 Y157.974 E12.78344
G1 X140.879 Y157.365 E12.82362
G1 X140.404 Y156.735 E12.86298
G1 X139.986 Y156.096 E12.90107
G1 X139.595 Y155.403 E12.94077
G1 X139.249 Y154.678 E12.98085
G1 X139.108 Y154.338 E12.99921
G1 X138.840 Y153.593 E13.03871
G1 X138.619 Y152.815 E13.07906
G1 X138.455 Y152.045 E13.11834
G1 X138.347 Y151.289 E13.15644
G1 X138.285 Y150.478 E13.19702
G1 X138.276 Y150.086 E13.21658
G1 X138.295 Y149.323 E13.25466
G1 X138.370 Y148.512 E13.29529
G1 X138.490 Y147.762 E13.33319
G1 X138.674 Y146.969 E13.37380
G1 X138.895 Y146.239 E13.41185
G1 X139.172 Y145.503 E13.45109
G1 X139.499 Y144.785 E13.49045
G1 X139.874 Y144.091 E13.52980
G1 X140.306 Y143.406 E13.57021
G1 X140.771 Y142.769 E13.60955
G1 X141.262 Y142.183 E13.64769
G1 X141.823 Y141.598 E13.68813
G0 F6000 X141.463 Y141.251
;TYPE:WALL-OUTER
G1 F1800 X142.069 Y140.698 E13.72906
G1 X142.392 Y140.431 E13.74997
G1 X143.045 Y139.947 E13.79052
G1 X143.742 Y139.499 E13.83186
G1 X144.455 Y139.106 E13.87247
G1 X145.199 Y138.759 E13.91343
G1 X145.973 Y138.459 E13.95485
G1 X146.756 Y138.214 E13.99578
G1 X147.547 Y138.025 E14.03635
G1 X148.365 Y137.886 E14.07775
G1 X149.174 Y137.804 E14.11831
G1 X149.999 Y137.776 E14.15950
G1 X150.823 Y137.804 E14.20063
G1 X151.632 Y137.886 E14.24120
G1 X152.450 Y138.025 E14.28259
G1 X153.241 Y138.214 E14.32317
G1 X154.024 Y138.458 E14.36408
G1 X154.799 Y138.759 E14.40556
G1 X155.542 Y139.106 E14.44647
G1 X156.255 Y139.499 E14.48709
G1 X156.952 Y139.947 E14.52843
G1 X157.605 Y140.431 E14.56898
G1 X158.237 Y140.970 E14.61042
G1 X158.824 Y141.543 E14.65135
G1 X159.367 Y142.148 E14.69190
G1 X159.626 Y142.467 E14.71240
G1 X159.877 Y142.802 E14.73329
G1 X160.334 Y143.474 E14.77383
G1 X160.749 Y144.183 E14.81482
G1 X161.116 Y144.918 E14.85580
G1 X161.432 Y145.676 E14.89678
G1 X161.696 Y146.453 E14.93772
G1 X161.909 Y147.255 E14.97912
G1 X162.066 Y148.053 E15.01969
G1 X162.170 Y148.868 E15.06068
G1 X162.218 Y149.687 E15.10161
G1 X162.221 Y150.098 E15.12212
G1 X162.186 Y150.927 E15.16351
G1 X162.098 Y151.735 E15.20406
G1 X161.955 Y152.544 E15.24505
G1 X161.754 Y153.349 E15.28644
G1 X161.505 Y154.123 E15.32701
G1 X161.199 Y154.894 E15.36839
G1 X161.033 Y155.259 E15.38840
G1 X160.654 Y155.988 E15.42939
G1 X160.228 Y156.690 E15.47036
G1 X159.750 Y157.368 E15.51174
G1 X159.239 Y158.001 E15.55233
G1 X158.680 Y158.603 E15.59332
G1 X158.077 Y159.172 E15.63468
G1 X157.771 Y159.434 E15.65478
G1 X157.120 Y159.934 E15.69573
G1 X156.437 Y160.389 E15.73667
G1 X155.717 Y160.802 E15.77808
G1 X154.987 Y161.159 E15.81862
G1 X154.225 Y161.468 E15.85965
G1 X153.441 Y161.727 E15.90084
G1 X152.651 Y161.931 E15.94155
G1 X151.835 Y162.083 E15.98296
G1 X151.028 Y162.179 E16.02350
G1 X150.196 Y162.221 E16.06506
G1 X149.802 Y162.221 E16.08472
G1 X148.969 Y162.179 E16.12633
G1 X148.154 Y162.082 E16.16728
G1 X147.346 Y161.931 E16.20829
G1 X146.557 Y161.727 E16.24895
G1 X145.772 Y161.468 E16.29019
G1 X145.011 Y161.159 E16.33116
G1 X144.280 Y160.802 E16.37175
G1 X143.560 Y160.389 E16.41316
G1 X142.877 Y159.934 E16.45411
G1 X142.547 Y159.689 E16.47461
G1 X141.920 Y159.172 E16.51515
G1 X141.317 Y158.603 E16.55652
G1 X140.758 Y158.001 E16.59750
G1 X140.247 Y157.368 E16.63809
G1 X139.770 Y156.691 E16.67941
G1 X139.554 Y156.350 E16.69955
G1 X139.152 Y155.634 E16.74051
G1 X138.965 Y155.259 E16.76142
G1 X138.637 Y154.507 E16.80235
G1 X138.360 Y153.734 E16.84332
G1 X138.243 Y153.349 E16.86339
G1 X138.136 Y152.944 E16.88429
G1 X137.966 Y152.148 E16.92490
G1 X137.848 Y151.328 E16.96623
G1 X137.786 Y150.508 E17.00726
G1 X137.776 Y150.106 E17.02732
G1 X137.797 Y149.277 E17.06869
G1 X137.827 Y148.876 E17.08875
G1 X137.873 Y148.459 E17.10968
G1 X138.003 Y147.649 E17.15061
G1 X138.087 Y147.255 E17.17071
G1 X138.299 Y146.461 E17.21171
G1 X138.562 Y145.684 E17.25263
G1 X138.879 Y144.925 E17.29367
G1 X139.244 Y144.191 E17.33457
G1 X139.658 Y143.481 E17.37557
G1 X140.120 Y142.802 E17.41655
G1 X140.372 Y142.468 E17.43742
G1 X140.895 Y141.844 E17.47804
G1 X141.179 Y141.537 E17.49890
G1 X141.463 Y141.251 E17.51901
G0 F6000 X142.013 Y141.660
;TYPE:SKIN
G1 F1800 X158.336 Y157.982 E18.67065
G0 F6000 X158.676 Y157.616
G1 F1800 X142.383 Y141.323 E19.82021
G0 F6000 X142.769 Y141.002
G1 F1800 X158.996 Y157.228 E20.96508
G0 F6000 X159.304 Y156.829
G1 F1800 X143.166 Y140.691 E22.10370
G0 F6000 X143.584 Y140.402
G1 F1800 X159.596 Y156.414 E23.23344
G0 F6000 X159.869 Y155.979
G1 F1800 X144.017 Y140.128 E24.35185
G0 F6000 X141.662 Y142.016
G1 F1800 X157.980 Y158.333 E25.50313
G0 F6000 X157.615 Y158.676
G1 F1800 X141.322 Y142.383 E26.65269
G0 F6000 X140.999 Y142.767
G1 F1800 X157.228 Y158.995 E27.79770
G0 F6000 X156.829 Y159.304
G1 F1800 X140.694 Y143.169 E28.93611
G0 F6000 X140.399 Y143.581
G1 F1800 X156.416 Y159.598 E30.06620
G0 F6000 X155.980 Y159.869
G1 F1800 X140.126 Y144.015 E31.18478
G0 F6000 X140.212 Y156.122
G1 F1800 X143.884 Y159.794 E31.44386
G0 F6000 X159.789 Y143.879
G1 F1800 X156.132 Y140.222 E31.70188
G0 F6000 X154.627 Y139.425
G1 F1800 X160.569 Y145.366 E32.12109
G0 F6000 X160.997 Y146.501
G1 F1800 X153.498 Y139.002 E32.65018
G0 F6000 X152.526 Y138.737
G1 F1800 X161.259 Y147.471 E33.26638
G0 F6000 X161.421 Y148.339
G1 F1800 X151.656 Y138.574 E33.95535
G0 F6000 X150.861 Y138.486
G1 F1800 X161.509 Y149.135 E34.70666
G0 F6000 X161.540 Y149.873
G1 F1800 X150.123 Y138.456 E35.51219
G0 F6000 X149.430 Y138.470
G1 F1800 X161.525 Y150.565 E36.36556
G0 F6000 X161.474 Y151.221
G1 F1800 X148.772 Y138.519 E37.26175
G0 F6000 X148.148 Y138.602
G1 F1800 X161.392 Y151.846 E38.19619
G0 F6000 X161.282 Y152.443
G1 F1800 X147.556 Y138.718 E39.16460
G0 F6000 X146.989 Y138.858
G1 F1800 X161.141 Y153.010 E40.16310
G0 F6000 X160.978 Y153.553
G1 F1800 X146.441 Y139.017 E41.18873
G0 F6000 X145.917 Y139.200
G1 F1800 X160.798 Y154.081 E42.23866
G0 F6000 X160.592 Y154.582
G1 F1800 X145.417 Y139.406 E43.30938
G0 F6000 X144.931 Y139.628
G1 F1800 X160.371 Y155.067 E44.39872
G0 F6000 X160.129 Y155.533
G1 F1800 X144.463 Y139.867 E45.50404
G0 F6000 X139.869 Y144.466
G1 F1800 X155.531 Y160.127 E46.60904
G0 F6000 X155.069 Y160.372
G1 F1800 X139.626 Y144.929 E47.69863
G0 F6000 X139.404 Y145.415
G1 F1800 X154.582 Y160.592 E48.76948
G0 F6000 X154.073 Y160.791
G1 F1800 X139.201 Y145.919 E49.81878
G0 F6000 X139.015 Y146.440
G1 F1800 X153.550 Y160.974 E50.84427
G0 F6000 X153.009 Y161.141
G1 F1800 X138.851 Y146.982 E51.84323
G0 F6000 X138.717 Y147.556
G1 F1800 X152.442 Y161.281 E52.81160
G0 F6000 X151.846 Y161.392
G1 F1800 X138.604 Y148.150 E53.74590
G0 F6000 X138.521 Y148.774
G1 F1800 X151.223 Y161.476 E54.64209
G0 F6000 X150.565 Y161.525
G1 F1800 X138.467 Y149.427 E55.49567
G0 F6000 X138.450 Y150.118
G1 F1800 X149.867 Y161.534 E56.30117
G0 F6000 X149.134 Y161.508
G1 F1800 X138.489 Y150.864 E57.05219
G0 F6000 X138.575 Y151.657
G1 F1800 X148.342 Y161.423 E57.74127
G0 F6000 X147.477 Y161.266
G1 F1800 X138.735 Y152.524 E58.35807
G0 F6000 X138.991 Y153.486
G1 F1800 X146.501 Y160.997 E58.88797
G0 F6000 X145.374 Y160.576
G1 F1800 X139.413 Y154.615 E59.30855
;LAYER:1
M106 S63
G0 F6000 X139.194 Y154.612 Z0.400
;TYPE:WALL-INNER
G1 F1920 X138.970 Y154.053 E59.33860
G1 X138.789 Y153.513 E59.36701
G1 X138.614 Y152.908 E59.39843
G1 X138.491 Y152.362 E59.42636
G1 X138.382 Y151.762 E59.45678
G1 X138.312 Y151.197 E59.48518
G1 X138.263 Y150.587 E59.51571
G1 X138.250 Y150.000 E59.54501
G1 X138.264 Y149.387 E59.57560
G1 X138.354 Y148.442 E59.62296
G1 X138.450 Y147.835 E59.65362
G1 X138.573 Y147.265 E59.68271
G1 X138.723 Y146.697 E59.71202
G1 X138.913 Y146.110 E59.74280
G1 X139.115 Y145.570 E59.77156
G1 X139.346 Y145.045 E59.80018
G1 X139.615 Y144.500 E59.83050
G1 X139.908 Y143.982 E59.86019
G1 X140.225 Y143.478 E59.88990
G1 X140.562 Y143.002 E59.91899
G1 X140.928 Y142.530 E59.94879
G1 X141.305 Y142.098 E59.97740
G1 X141.732 Y141.650 E60.00827
G1 X142.150 Y141.258 E60.03686
G1 X142.614 Y140.860 E60.06736
G1 X143.072 Y140.511 E60.09609
G1 X143.563 Y140.170 E60.12591
G1 X144.067 Y139.859 E60.15546
G1 X144.595 Y139.566 E60.18559
G1 X145.104 Y139.320 E60.21379
G1 X145.661 Y139.080 E60.24405
G1 X146.234 Y138.871 E60.27448
G1 X146.773 Y138.702 E60.30266
G1 X147.366 Y138.551 E60.33319
G1 X147.931 Y138.433 E60.36199
G1 X148.521 Y138.346 E60.39174
G1 X149.118 Y138.283 E60.42169
G1 X149.705 Y138.256 E60.45101
G1 X149.901 Y138.250 E60.46079
G1 X150.503 Y138.262 E60.49083
G1 X151.070 Y138.299 E60.51918
G1 X151.670 Y138.371 E60.54933
G1 X152.258 Y138.469 E60.57907
G1 X152.822 Y138.596 E60.60791
G1 X153.406 Y138.755 E60.63810
G1 X153.975 Y138.945 E60.66803
G1 X154.520 Y139.155 E60.69717
G1 X155.042 Y139.389 E60.72571
G1 X155.600 Y139.670 E60.75688
G1 X156.084 Y139.950 E60.78478
G1 X156.597 Y140.277 E60.81513
G1 X157.073 Y140.620 E60.84440
G1 X157.547 Y140.995 E60.87455
G1 X157.983 Y141.381 E60.90360
G1 X158.413 Y141.800 E60.93356
G1 X158.811 Y142.230 E60.96279
G1 X159.189 Y142.679 E60.99207
G1 X159.559 Y143.172 E61.02282
G1 X159.875 Y143.635 E61.05079
G1 X160.196 Y144.168 E61.08183
G1 X160.468 Y144.665 E61.11010
G1 X160.732 Y145.224 E61.14094
G1 X160.955 Y145.753 E61.16958
G1 X161.152 Y146.310 E61.19906
G1 X161.326 Y146.876 E61.22860
G1 X161.470 Y147.469 E61.25904
G1 X161.582 Y148.027 E61.28744
G1 X161.664 Y148.618 E61.31721
G1 X161.723 Y149.231 E61.34793
G1 X161.745 Y149.804 E61.37654
G1 X161.749 Y149.988 E61.38572
G1 X161.721 Y150.794 E61.42596
G1 X161.666 Y151.375 E61.45507
G1 X161.583 Y151.962 E61.48465
G1 X161.464 Y152.560 E61.51507
G1 X161.328 Y153.116 E61.54362
G1 X161.159 Y153.670 E61.57252
G1 X160.950 Y154.258 E61.60365
G1 X160.733 Y154.774 E61.63158
G1 X160.471 Y155.327 E61.66211
G1 X160.186 Y155.850 E61.69183
G1 X159.879 Y156.358 E61.72144
G1 X159.553 Y156.835 E61.75026
G1 X159.196 Y157.312 E61.77999
G1 X158.802 Y157.779 E61.81047
G1 X158.425 Y158.188 E61.83822
G1 X157.983 Y158.618 E61.86899
G1 X157.547 Y159.004 E61.89804
G1 X157.070 Y159.381 E61.92837
G1 X156.600 Y159.720 E61.95728
G1 X156.105 Y160.036 E61.98658
G1 X155.580 Y160.339 E62.01682
G1 X155.062 Y160.600 E62.04576
G1 X154.513 Y160.847 E62.07580
G1 X153.976 Y161.054 E62.10451
G1 X153.384 Y161.251 E62.13564
G1 X152.446 Y161.489 E62.18392
G1 X151.870 Y161.599 E62.21317
G1 X151.266 Y161.679 E62.24357
G1 X150.698 Y161.728 E62.27201
G1 X150.081 Y161.747 E62.30281
G1 X149.892 Y161.749 E62.31224
G1 X149.326 Y161.728 E62.34050
G1 X148.711 Y161.678 E62.37128
G1 X148.139 Y161.599 E62.40009
G1 X147.545 Y161.490 E62.43022
G1 X146.958 Y161.347 E62.46036
G1 X146.413 Y161.189 E62.48867
G1 X145.854 Y160.992 E62.51824
G1 X145.298 Y160.768 E62.54814
G1 X144.771 Y160.520 E62.57720
G1 X144.229 Y160.235 E62.60775
G1 X143.726 Y159.932 E62.63705
G1 X143.235 Y159.608 E62.66640
G1 X142.764 Y159.256 E62.69573
G1 X142.312 Y158.886 E62.72488
G1 X141.868 Y158.479 E62.75492
G1 X141.448 Y158.058 E62.78459
G1 X141.054 Y157.616 E62.81413
G1 X140.688 Y157.166 E62.84307
G1 X140.326 Y156.666 E62.87387
G1 X140.010 Y156.186 E62.90254
G1 X139.718 Y155.683 E62.93156
G1 X139.434 Y155.140 E62.96213
G1 X139.194 Y154.612 E62.99106
G0 F6000 X138.731 Y154.801
;TYPE:WALL-OUTER
G1 F1740 X138.500 Y154.226 E63.02198
G1 X138.305 Y153.643 E63.05265
G1 X138.137 Y153.060 E63.08292
G1 X137.998 Y152.447 E63.11428
G1 X137.887 Y151.837 E63.14521
G1 X137.812 Y151.226 E63.17592
G1 X137.764 Y150.621 E63.20620
G1 X137.750 Y150.006 E63.23689
G1 X137.764 Y149.376 E63.26833
G1 X137.860 Y148.364 E63.31905
G1 X137.958 Y147.742 E63.35046
G1 X138.086 Y147.151 E63.38063
G1 X138.247 Y146.542 E63.41206
G1 X138.433 Y145.967 E63.44221
G1 X138.649 Y145.390 E63.47294
G1 X138.903 Y144.813 E63.50440
G1 X139.171 Y144.271 E63.53456
G1 X139.475 Y143.733 E63.56539
G1 X139.810 Y143.199 E63.59684
G1 X140.160 Y142.705 E63.62705
G1 X140.546 Y142.207 E63.65848
G1 X140.943 Y141.753 E63.68857
G1 X141.378 Y141.297 E63.72001
G1 X141.819 Y140.883 E63.75019
G1 X142.287 Y140.482 E63.78094
G1 X142.787 Y140.100 E63.81233
G1 X143.284 Y139.754 E63.84254
G1 X143.810 Y139.430 E63.87336
G1 X144.361 Y139.124 E63.90481
G1 X144.906 Y138.861 E63.93500
G1 X145.480 Y138.614 E63.96617
G1 X146.063 Y138.401 E63.99714
G1 X146.640 Y138.219 E64.02732
G1 X147.239 Y138.067 E64.05815
G1 X147.856 Y137.938 E64.08960
G1 X148.454 Y137.850 E64.11976
G1 X149.075 Y137.785 E64.15091
G1 X149.696 Y137.756 E64.18192
G1 X149.896 Y137.750 E64.19191
G1 X150.518 Y137.762 E64.22294
G1 X151.124 Y137.801 E64.25324
G1 X151.736 Y137.875 E64.28400
G1 X152.355 Y137.979 E64.31531
G1 X152.958 Y138.114 E64.34614
G1 X153.549 Y138.275 E64.37670
G1 X154.135 Y138.471 E64.40753
G1 X154.710 Y138.692 E64.43826
G1 X155.267 Y138.942 E64.46872
G1 X155.830 Y139.226 E64.50018
G1 X156.353 Y139.528 E64.53031
G1 X156.884 Y139.868 E64.56177
G1 X157.384 Y140.228 E64.59250
G1 X157.859 Y140.603 E64.62270
G1 X158.330 Y141.021 E64.65411
G1 X158.764 Y141.443 E64.68431
G1 X159.191 Y141.905 E64.71570
G1 X159.581 Y142.368 E64.74590
G1 X159.959 Y142.871 E64.77729
G1 X160.300 Y143.370 E64.80745
G1 X160.620 Y143.901 E64.83838
G1 X160.915 Y144.441 E64.86908
G1 X161.184 Y145.010 E64.90048
G1 X161.419 Y145.567 E64.93064
G1 X161.629 Y146.160 E64.96202
G1 X161.807 Y146.739 E64.99224
G1 X161.954 Y147.341 E65.02316
G1 X162.075 Y147.944 E65.05384
G1 X162.162 Y148.568 E65.08527
G1 X162.220 Y149.170 E65.11545
G1 X162.245 Y149.795 E65.14665
G1 X162.249 Y149.991 E65.15643
G1 X162.220 Y150.825 E65.19807
G1 X162.163 Y151.430 E65.22839
G1 X162.075 Y152.055 E65.25987
G1 X161.957 Y152.647 E65.28999
G1 X161.807 Y153.259 E65.32143
G1 X161.630 Y153.837 E65.35159
G1 X161.419 Y154.431 E65.38303
G1 X161.185 Y154.989 E65.41322
G1 X160.921 Y155.545 E65.44393
G1 X160.620 Y156.098 E65.47534
G1 X160.302 Y156.626 E65.50609
G1 X159.959 Y157.127 E65.53638
G1 X159.583 Y157.628 E65.56763
G1 X159.191 Y158.094 E65.59801
G1 X158.767 Y158.554 E65.62923
G1 X158.330 Y158.978 E65.65960
G1 X157.862 Y159.393 E65.69081
G1 X157.385 Y159.770 E65.72114
G1 X156.884 Y160.131 E65.75195
G1 X156.358 Y160.468 E65.78312
G1 X155.818 Y160.779 E65.81421
G1 X155.278 Y161.051 E65.84437
G1 X154.703 Y161.310 E65.87583
G1 X154.135 Y161.528 E65.90619
G1 X153.542 Y161.726 E65.93738
G1 X152.557 Y161.977 E65.98809
G1 X151.941 Y162.094 E66.01937
G1 X151.329 Y162.175 E66.05017
G1 X150.721 Y162.228 E66.08062
G1 X150.096 Y162.247 E66.11181
G1 X149.901 Y162.249 E66.12154
G1 X149.274 Y162.226 E66.15285
G1 X148.670 Y162.177 E66.18308
G1 X148.047 Y162.091 E66.21445
G1 X147.445 Y161.980 E66.24500
G1 X146.840 Y161.833 E66.27606
G1 X146.260 Y161.665 E66.30618
G1 X145.665 Y161.455 E66.33766
G1 X145.091 Y161.224 E66.36853
G1 X144.545 Y160.967 E66.39864
G1 X143.987 Y160.673 E66.43010
G1 X143.460 Y160.356 E66.46079
G1 X142.943 Y160.014 E66.49171
G1 X142.450 Y159.646 E66.52240
G1 X141.982 Y159.262 E66.55261
G1 X141.526 Y158.844 E66.58347
G1 X141.081 Y158.398 E66.61490
G1 X140.672 Y157.939 E66.64557
G1 X140.290 Y157.469 E66.67579
G1 X139.921 Y156.959 E66.70720
G1 X139.580 Y156.442 E66.73809
G1 X139.276 Y155.919 E66.76827
G1 X138.985 Y155.361 E66.79967
G1 X138.731 Y154.801 E66.83035
G0 F6000 X139.328 Y154.474
;TYPE:SKIN
G1 F1740 X154.475 Y139.326 E67.89909
G0 F6000 X154.964 Y139.545
G1 F1740 X139.546 Y154.963 E68.98691
G0 F6000 X139.785 Y155.431
G1 F1740 X155.434 Y139.782 E70.09103
G0 F6000 X153.967 Y139.128
G1 F1740 X139.126 Y153.968 E71.13811
G0 F6000 X138.950 Y153.438
G1 F1740 X153.439 Y138.949 E72.16039
G0 F6000 X152.887 Y138.794
G1 F1740 X138.790 Y152.890 E73.15497
G0 F6000 X138.660 Y152.313
G1 F1740 X152.312 Y138.661 E74.11819
G0 F6000 X151.711 Y138.555
G1 F1740 X138.552 Y151.714 E75.04663
G0 F6000 X138.477 Y151.082
G1 F1740 X151.083 Y138.476 E75.93605
G0 F6000 X150.417 Y138.435
G1 F1740 X138.434 Y150.418 E76.78152
G0 F6000 X138.432 Y149.713
G1 F1740 X149.715 Y138.430 E77.57759
G0 F6000 X148.964 Y138.474
G1 F1740 X138.481 Y148.957 E78.31723
G0 F6000 X138.576 Y148.155
G1 F1740 X148.156 Y138.575 E78.99315
G0 F6000 X147.268 Y138.756
G1 F1740 X138.752 Y147.271 E79.59396
G0 F6000 X139.043 Y146.274
G1 F1740 X146.275 Y139.041 E80.10425
G0 F6000 X145.089 Y139.520
G1 F1740 X139.517 Y145.093 E80.49742
G0 F6000 X140.471 Y143.432
G1 F1740 X143.425 Y140.478 E80.70584
G0 F6000 X155.886 Y140.037
G1 F1740 X140.038 Y155.885 E81.82401
G0 F6000 X140.309 Y156.322
G1 F1740 X156.322 Y140.309 E82.95381
G0 F6000 X156.741 Y140.596
G1 F1740 X140.596 Y156.741 E84.09293
G0 F6000 X140.898 Y157.146
G1 F1740 X157.145 Y140.900 E85.23921
G0 F6000 X157.534 Y141.217
G1 F1740 X141.217 Y157.534 E86.39046
G0 F6000 X141.550 Y157.908
G1 F1740 X157.907 Y141.552 E87.54450
G0 F6000 X158.266 Y141.900
G1 F1740 X141.902 Y158.263 E88.69903
G0 F6000 X142.267 Y158.606
G1 F1740 X158.606 Y142.267 E89.85184
G0 F6000 X158.932 Y142.648
G1 F1740 X142.646 Y158.934 E91.00090
G0 F6000 X143.042 Y159.245
G1 F1740 X159.243 Y143.044 E92.14397
G0 F6000 X159.540 Y143.454
G1 F1740 X143.453 Y159.541 E93.27899
G0 F6000 X143.882 Y159.820
G1 F1740 X159.818 Y143.883 E94.40340
G0 F6000 X160.081 Y144.327
G1 F1740 X144.322 Y160.086 E95.51528
G0 F6000 X144.785 Y160.330
G1 F1740 X160.330 Y144.785 E96.61207
G0 F6000 X160.557 Y145.266
G1 F1740 X145.264 Y160.559 E97.69107
G0 F6000 X145.763 Y160.767
G1 F1740 X160.768 Y145.762 E98.74975
G0 F6000 X160.955 Y146.282
G1 F1740 X146.281 Y160.956 E99.78508
G0 F6000 X146.820 Y161.124
G1 F1740 X161.124 Y146.820 E100.79431
G0 F6000 X161.268 Y147.383
G1 F1740 X147.382 Y161.269 E101.77404
G0 F6000 X147.969 Y161.389
G1 F1740 X161.390 Y147.968 E102.72096
G0 F6000 X161.481 Y148.585
G1 F1740 X148.582 Y161.483 E103.63102
G0 F6000 X149.228 Y161.544
G1 F1740 X161.545 Y149.227 E104.50005
G0 F6000 X161.571 Y149.909
G1 F1740 X149.907 Y161.573 E105.32301
G0 F6000 X150.633 Y161.554
G1 F1740 X161.550 Y150.637 E106.09327
G0 F6000 X161.482 Y151.412
G1 F1740 X151.412 Y161.482 E106.80376
G0 F6000 X152.255 Y161.346
G1 F1740 X161.344 Y152.257 E107.44504
G0 F6000 X161.122 Y153.186
G1 F1740 X153.189 Y161.119 E108.00475
G0 F6000 X154.258 Y160.757
G1 F1740 X160.760 Y154.256 E108.46347
G0 F6000 X160.117 Y155.605
G1 F1740 X155.596 Y160.126 E108.78245
;LAYER:2
M106 S127
G0 F6000 X155.671 Y160.259 Z0.600
;TYPE:WALL-INNER
G1 F2100 X155.307 Y160.452 E108.80300
G1 X154.605 Y160.779 E108.84164
G1 X153.852 Y161.071 E108.88193
G1 X153.116 Y161.300 E108.92039
G1 X152.342 Y161.486 E108.96010
G1 X151.582 Y161.615 E108.99856
G1 X150.804 Y161.695 E109.03758
G1 X149.999 Y161.722 E109.07777
G1 X149.193 Y161.695 E109.11800
G1 X148.415 Y161.615 E109.15702
G1 X147.655 Y161.486 E109.19548
G1 X146.881 Y161.300 E109.23519
G1 X146.145 Y161.071 E109.27365
G1 X145.397 Y160.781 E109.31367
G1 X144.690 Y160.452 E109.35258
G1 X144.005 Y160.075 E109.39159
G1 X143.322 Y159.636 E109.43209
G1 X142.708 Y159.181 E109.47022
G1 X142.104 Y158.666 E109.50982
G1 X141.527 Y158.103 E109.55004
G1 X141.004 Y157.518 E109.58919
G1 X140.519 Y156.896 E109.62854
G1 X140.076 Y156.243 E109.66791
G1 X139.686 Y155.574 E109.70654
G1 X139.340 Y154.880 E109.74523
G1 X139.027 Y154.130 E109.78577
G1 X138.775 Y153.385 E109.82501
G1 X138.573 Y152.623 E109.86434
G1 X138.425 Y151.867 E109.90277
G1 X138.325 Y151.070 E109.94285
G1 X138.279 Y150.305 E109.98108
G1 X138.276 Y149.913 E110.00064
G1 X138.310 Y149.102 E110.04114
G1 X138.396 Y148.317 E110.08053
G1 X138.535 Y147.542 E110.11982
G1 X138.727 Y146.779 E110.15907
G1 X138.960 Y146.053 E110.19711
G1 X139.108 Y145.661 E110.21801
G1 X139.412 Y144.963 E110.25600
G1 X139.774 Y144.264 E110.29527
G1 X140.184 Y143.589 E110.33467
G1 X140.651 Y142.926 E110.37513
G1 X141.148 Y142.312 E110.41454
G1 X141.666 Y141.754 E110.45252
G1 X142.239 Y141.213 E110.49184
G1 X142.865 Y140.696 E110.53234
G1 X143.495 Y140.245 E110.57100
G1 X144.170 Y139.828 E110.61058
G1 X144.873 Y139.457 E110.65024
G1 X145.574 Y139.144 E110.68854
G1 X146.306 Y138.873 E110.72748
G1 X147.068 Y138.649 E110.76711
G1 X147.857 Y138.474 E110.80743
G1 X148.629 Y138.356 E110.84639
G1 X149.394 Y138.292 E110.88469
G1 X150.184 Y138.278 E110.92411
G1 X150.980 Y138.317 E110.96387
G1 X151.752 Y138.409 E111.00266
G1 X152.543 Y138.557 E111.04281
G1 X153.313 Y138.755 E111.08247
G1 X154.038 Y138.995 E111.12057
G1 X154.766 Y139.289 E111.15974
G1 X155.498 Y139.647 E111.20039
G1 X156.180 Y140.039 E111.23964
G1 X156.825 Y140.468 E111.27829
G1 X157.440 Y140.941 E111.31699
G1 X158.040 Y141.470 E111.35690
G1 X158.587 Y142.019 E111.39557
G1 X159.118 Y142.634 E111.43610
G1 X159.593 Y143.264 E111.47547
G1 X160.011 Y143.903 E111.51356
G1 X160.398 Y144.588 E111.55281
G1 X160.748 Y145.321 E111.59334
G1 X160.889 Y145.661 E111.61170
G1 X161.156 Y146.403 E111.65104
G1 X161.379 Y147.184 E111.69156
G1 X161.538 Y147.931 E111.72967
G1 X161.651 Y148.708 E111.76884
G1 X161.712 Y149.521 E111.80951
G1 X161.721 Y149.913 E111.82908
G1 X161.702 Y150.677 E111.86720
G1 X161.631 Y151.460 E111.90643
G1 X161.507 Y152.237 E111.94568
G1 X161.329 Y153.007 E111.98511
G1 X161.094 Y153.782 E112.02552
G1 X160.824 Y154.498 E112.06369
G1 X160.498 Y155.214 E112.10294
G1 X160.124 Y155.908 E112.14227
G1 X159.692 Y156.593 E112.18268
G1 X159.229 Y157.226 E112.22180
G1 X158.737 Y157.815 E112.26009
G1 X158.176 Y158.400 E112.30053
G1 X157.609 Y158.916 E112.33878
G1 X156.974 Y159.421 E112.37925
G1 X156.334 Y159.864 E112.41809
G1 X155.671 Y160.259 E112.45659
G0 F6000 X155.905 Y160.701
;TYPE:WALL-OUTER
G1 F1800 X155.165 Y161.077 E112.49800
G1 X154.417 Y161.395 E112.53855
G1 X154.024 Y161.540 E112.55945
G1 X153.240 Y161.785 E112.60043
G1 X152.450 Y161.974 E112.64096
G1 X151.632 Y162.113 E112.68235
G1 X150.826 Y162.195 E112.72277
G1 X149.999 Y162.223 E112.76405
G1 X149.171 Y162.195 E112.80538
G1 X148.365 Y162.113 E112.84580
G1 X147.547 Y161.974 E112.88720
G1 X146.757 Y161.785 E112.92772
G1 X145.973 Y161.541 E112.96869
G1 X145.199 Y161.240 E113.01012
G1 X144.455 Y160.893 E113.05108
G1 X143.742 Y160.500 E113.09170
G1 X143.045 Y160.052 E113.13303
G1 X142.392 Y159.568 E113.17358
G1 X141.767 Y159.035 E113.21456
G1 X141.463 Y158.748 E113.23542
G1 X141.178 Y158.463 E113.25553
G1 X140.625 Y157.844 E113.29694
G1 X140.371 Y157.532 E113.31701
G1 X139.884 Y156.861 E113.35838
G1 X139.450 Y156.173 E113.39896
G1 X139.055 Y155.444 E113.44033
G1 X138.714 Y154.697 E113.48129
G1 X138.424 Y153.929 E113.52225
G1 X138.189 Y153.151 E113.56280
G1 X138.088 Y152.744 E113.58372
G1 X137.930 Y151.938 E113.62469
G1 X137.872 Y151.540 E113.64476
G1 X137.828 Y151.123 E113.66568
G1 X137.779 Y150.303 E113.70666
G1 X137.776 Y149.901 E113.72672
G1 X137.811 Y149.072 E113.76812
G1 X137.899 Y148.264 E113.80867
G1 X138.042 Y147.456 E113.84960
G1 X138.135 Y147.055 E113.87014
G1 X138.244 Y146.650 E113.89106
G1 X138.492 Y145.876 E113.93161
G1 X138.798 Y145.105 E113.97300
G1 X138.964 Y144.740 E113.99300
G1 X139.343 Y144.011 E114.03399
G1 X139.555 Y143.650 E114.05488
G1 X140.000 Y142.969 E114.09547
G1 X140.495 Y142.313 E114.13647
G1 X141.038 Y141.686 E114.17785
G1 X141.617 Y141.103 E114.21884
G1 X142.227 Y140.565 E114.25942
G1 X142.547 Y140.310 E114.27983
G1 X142.877 Y140.065 E114.30034
G1 X143.560 Y139.610 E114.34128
G1 X144.280 Y139.197 E114.38269
G1 X145.011 Y138.840 E114.42328
G1 X145.772 Y138.531 E114.46426
G1 X146.559 Y138.271 E114.50561
G1 X147.346 Y138.068 E114.54615
G1 X148.154 Y137.916 E114.58717
G1 X148.977 Y137.819 E114.62852
G1 X149.797 Y137.778 E114.66948
G1 X150.620 Y137.792 E114.71054
G1 X151.020 Y137.818 E114.73054
G1 X151.835 Y137.916 E114.77150
G1 X152.651 Y138.068 E114.81291
G1 X153.439 Y138.271 E114.85350
G1 X154.225 Y138.531 E114.89481
G1 X154.987 Y138.840 E114.93583
G1 X155.717 Y139.197 E114.97637
G1 X156.437 Y139.610 E115.01778
G1 X157.113 Y140.060 E115.05830
G1 X157.443 Y140.305 E115.07880
G1 X157.771 Y140.566 E115.09971
G1 X158.077 Y140.826 E115.11975
G1 X158.680 Y141.396 E115.16114
G1 X159.233 Y141.991 E115.20167
G1 X159.750 Y142.631 E115.24272
G1 X160.223 Y143.301 E115.28363
G1 X160.654 Y144.011 E115.32507
G1 X161.032 Y144.740 E115.36604
G1 X161.357 Y145.484 E115.40655
G1 X161.635 Y146.258 E115.44758
G1 X161.860 Y147.047 E115.48851
G1 X161.954 Y147.455 E115.50940
G1 X162.097 Y148.256 E115.54999
G1 X162.186 Y149.072 E115.59094
G1 X162.221 Y149.893 E115.63194
G1 X162.200 Y150.722 E115.67331
G1 X162.126 Y151.531 E115.71384
G1 X161.994 Y152.350 E115.75523
G1 X161.910 Y152.744 E115.77533
G1 X161.696 Y153.545 E115.81669
G1 X161.435 Y154.315 E115.85725
G1 X161.116 Y155.081 E115.89865
G1 X160.753 Y155.809 E115.93924
G1 X160.334 Y156.525 E115.98062
G1 X160.115 Y156.861 E116.00063
G1 X159.878 Y157.197 E116.02115
G1 X159.625 Y157.531 E116.04205
G1 X159.104 Y158.155 E116.08261
G1 X158.529 Y158.754 E116.12403
G1 X157.928 Y159.301 E116.16458
G1 X157.287 Y159.813 E116.20550
G1 X156.604 Y160.284 E116.24690
G1 X155.905 Y160.701 E116.28750
G0 F6000 X155.535 Y160.131
;TYPE:SKIN
G1 F1800 X139.867 Y144.463 E117.39297
G0 F6000 X139.626 Y144.929
G1 F1800 X155.065 Y160.368 E118.48227
G0 F6000 X154.583 Y160.593
G1 F1800 X139.404 Y145.415 E119.55320
G0 F6000 X139.197 Y145.915
G1 F1800 X154.077 Y160.794 E120.60302
G0 F6000 X153.554 Y160.979
G1 F1800 X139.017 Y146.442 E121.62869
G0 F6000 X138.853 Y146.985
G1 F1800 X153.011 Y161.143 E122.62761
G0 F6000 X152.443 Y161.281
G1 F1800 X138.712 Y147.551 E123.59637
G0 F6000 X138.603 Y148.149
G1 F1800 X151.845 Y161.391 E124.53067
G0 F6000 X151.221 Y161.474
G1 F1800 X138.521 Y148.774 E125.42672
G0 F6000 X138.470 Y149.430
G1 F1800 X150.565 Y161.525 E126.28009
G0 F6000 X149.874 Y161.541
G1 F1800 X138.452 Y150.119 E127.08597
G0 F6000 X138.487 Y150.861
G1 F1800 X149.136 Y161.510 E127.83732
G0 F6000 X148.342 Y161.423
G1 F1800 X138.574 Y151.656 E128.52647
G0 F6000 X138.730 Y152.518
G1 F1800 X147.473 Y161.262 E129.14337
G0 F6000 X146.501 Y160.997
G1 F1800 X138.995 Y153.491 E129.67296
G0 F6000 X139.425 Y154.627
G1 F1800 X145.372 Y160.575 E130.09258
G0 F6000 X143.867 Y159.777
G1 F1800 X140.200 Y156.110 E130.35131
G0 F6000 X140.128 Y144.017
G1 F1800 X155.979 Y159.869 E131.46972
G0 F6000 X156.412 Y159.594
G1 F1800 X140.401 Y143.582 E132.59942
G0 F6000 X140.693 Y143.167
G1 F1800 X156.831 Y159.306 E133.73808
G0 F6000 X157.227 Y158.995
G1 F1800 X141.001 Y142.769 E134.88291
G0 F6000 X141.320 Y142.381
G1 F1800 X157.614 Y158.674 E136.03250
G0 F6000 X157.983 Y158.337
G1 F1800 X141.661 Y142.014 E137.18414
G0 F6000 X142.017 Y141.663
G1 F1800 X158.335 Y157.981 E138.33547
G0 F6000 X158.675 Y157.614
G1 F1800 X142.382 Y141.321 E139.48503
G0 F6000 X142.769 Y141.002
G1 F1800 X158.997 Y157.230 E140.63000
G0 F6000 X159.302 Y156.827
G1 F1800 X143.168 Y140.693 E141.76834
G0 F6000 X143.580 Y140.398
G1 F1800 X159.597 Y156.415 E142.89843
G0 F6000 X159.871 Y155.982
G1 F1800 X144.017 Y140.128 E144.01701
G0 F6000 X156.118 Y140.208
G1 F1800 X159.778 Y143.868 E144.27524
G0 F6000 X160.581 Y145.379
G1 F1800 X154.623 Y139.420 E144.69565
G0 F6000 X153.496 Y139.000
G1 F1800 X161.003 Y146.508 E145.22534
G0 F6000 X161.260 Y147.472
G1 F1800 X152.520 Y138.731 E145.84203
G0 F6000 X151.655 Y138.573
G1 F1800 X161.421 Y148.339 E146.53108
G0 F6000 X161.507 Y149.133
G1 F1800 X150.861 Y138.486 E147.28224
G0 F6000 X150.121 Y138.454
G1 F1800 X161.545 Y149.878 E148.08827
G0 F6000 X161.529 Y150.569
G1 F1800 X149.427 Y138.467 E148.94213
G0 F6000 X148.772 Y138.519
G1 F1800 X161.476 Y151.223 E149.83847
G0 F6000 X161.392 Y151.846
G1 F1800 X148.151 Y138.605 E150.77269
G0 F6000 X147.558 Y138.719
G1 F1800 X161.279 Y152.440 E151.74078
G0 F6000 X161.143 Y153.012
G1 F1800 X146.986 Y138.855 E152.73963
G0 F6000 X146.441 Y139.016
G1 F1800 X160.979 Y153.555 E153.76540
G0 F6000 X160.794 Y154.077
G1 F1800 X145.919 Y139.202 E154.81492
G0 F6000 X145.416 Y139.406
G1 F1800 X160.592 Y154.582 E155.88566
G0 F6000 X160.371 Y155.067
G1 F1800 X144.929 Y139.626 E156.97515
G0 F6000 X144.466 Y139.869
G1 F1800 X160.127 Y155.531 E158.08015
M107
G1 F2400 E150.08015
G0 F6000 X160.127 Y155.531 Z5.600
; Default end code
;G1 X0 Y0 Z130 ; Get extruder out of way. Uncomment to use!
M107 ; Turn off fan
; Disable all extruder
G91 ; Relative positioning
T0
G1 E-1 ; Reduce filament pressure
M104 T0 S0
G90 ; Absolute positioning
G92 E0 ; Reset extruder position
M140 S0 ; Disable heated bed
M84 ; Turn steppers off

