;Generated with Cura_SteamEngine 15.01
; Default start code
G28 ; Home extruder
G1 Z15 F900
M107 ; Turn off fan
G90 ; Absolute positioning
M82 ; Extruder in absolute mode
M190 S50
; Activate all used extruder
M104 T0 S220
G92 E0 ; Reset extruder position
; Wait for all used extruders to reach temperature
M109 T0 S220
;Layer count: 3
;LAYER:0
M107
G0 F6000 X99.741 Y101.750 Z0.200
;TYPE:SKIRT
G1 F1800 X200.259 Y101.750 E5.01486
G1 X152.009 Y198.250 E10.39753
G1 X147.991 Y198.250 E10.59799
G1 X99.741 Y101.750 E15.98066
G1 F2400 E7.98066
G0 F6000 X106.213 Y105.750
;TYPE:WALL-INNER
G1 F2400 E15.98066
G1 F1800 X193.787 Y105.750 E20.34974
G1 X150.000 Y193.323 E25.23448
G1 X106.213 Y105.750 E30.11922
G0 F6000 X105.405 Y105.250
;TYPE:WALL-OUTER
G1 F1800 X194.595 Y105.250 E34.56893
G1 X150.000 Y194.440 E39.54385
G1 X105.405 Y105.250 E44.51878
G1 F2400 E36.51878
G0 F6000 X106.714 Y106.360
;TYPE:SKIN
G1 F2400 E44.51878
G1 F1800 X164.427 Y164.074 E48.59078
G0 F6000 X164.192 Y164.545
G1 F1800 X107.421 Y107.775 E52.59624
G0 F6000 X108.128 Y109.189
G1 F1800 X163.956 Y165.016 E56.53517
G0 F6000 X163.720 Y165.488
G1 F1800 X108.835 Y110.603 E60.40761
G0 F6000 X109.542 Y112.017
G1 F1800 X163.485 Y165.960 E64.21358
G0 F6000 X163.249 Y166.431
G1 F1800 X110.249 Y113.431 E67.95301
G0 F6000 X110.957 Y114.846
G1 F1800 X163.013 Y166.902 E71.62585
G0 F6000 X162.778 Y167.374
G1 F1800 X111.664 Y116.260 E75.23221
G0 F6000 X112.371 Y117.674
G1 F1800 X162.541 Y167.845 E78.77201
G0 F6000 X162.306 Y168.316
G1 F1800 X113.078 Y119.088 E82.24532
G0 F6000 X113.349 Y105.925
G1 F1800 X166.784 Y159.359 E86.01541
G0 F6000 X167.020 Y158.889
G1 F1800 X114.057 Y105.925 E89.75227
G0 F6000 X114.764 Y105.925
G1 F1800 X167.256 Y158.417 E93.45586
G0 F6000 X167.491 Y157.945
G1 F1800 X115.471 Y105.925 E97.12616
G0 F6000 X116.178 Y105.925
G1 F1800 X167.727 Y157.474 E100.76322
G0 F6000 X167.963 Y157.003
G1 F1800 X116.885 Y105.925 E104.36704
G0 F6000 X117.592 Y105.925
G1 F1800 X168.198 Y156.531 E107.93757
G0 F6000 X168.434 Y156.060
G1 F1800 X118.299 Y105.925 E111.47487
G0 F6000 X119.006 Y105.925
G1 F1800 X168.670 Y155.588 E114.97889
G0 F6000 X168.905 Y155.117
G1 F1800 X119.713 Y105.925 E118.44966
G0 F6000 X112.642 Y105.925
G1 F1800 X166.549 Y159.831 E122.25305
G0 F6000 X169.142 Y154.646
G1 F1800 X120.420 Y105.925 E125.69062
G0 F6000 X121.128 Y105.925
G1 F1800 X169.377 Y154.174 E129.09484
G0 F6000 X169.612 Y153.703
G1 F1800 X121.835 Y105.925 E132.46580
G0 F6000 X122.542 Y105.925
G1 F1800 X169.849 Y153.232 E135.80357
G0 F6000 X170.084 Y152.760
G1 F1800 X123.249 Y105.925 E139.10803
G0 F6000 X123.956 Y105.925
G1 F1800 X170.320 Y152.288 E142.37923
G0 F6000 X170.556 Y151.817
G1 F1800 X124.663 Y105.925 E145.61719
G0 F6000 X125.370 Y105.925
G1 F1800 X170.791 Y151.346 E148.82189
G0 F6000 X171.027 Y150.874
G1 F1800 X126.077 Y105.925 E151.99332
G0 F6000 X126.784 Y105.925
G1 F1800 X171.263 Y150.403 E155.13151
G0 F6000 X171.498 Y149.932
G1 F1800 X127.492 Y105.925 E158.23641
G0 F6000 X128.199 Y105.925
G1 F1800 X171.734 Y149.460 E161.30804
G0 F6000 X171.970 Y148.989
G1 F1800 X128.906 Y105.925 E164.34644
G0 F6000 X129.613 Y105.925
G1 F1800 X172.205 Y148.517 E167.35153
G0 F6000 X172.441 Y148.046
G1 F1800 X130.320 Y105.925 E170.32340
G0 F6000 X131.027 Y105.925
G1 F1800 X172.677 Y147.575 E173.26203
G0 F6000 X172.913 Y147.103
G1 F1800 X131.734 Y105.925 E176.16740
G0 F6000 X132.441 Y105.925
G1 F1800 X173.148 Y146.632 E179.03949
G0 F6000 X173.384 Y146.161
G1 F1800 X133.148 Y105.925 E181.87836
G0 F6000 X133.856 Y105.925
G1 F1800 X173.620 Y145.689 E184.68393
G0 F6000 X173.855 Y145.217
G1 F1800 X134.563 Y105.925 E187.45619
G0 F6000 X135.270 Y105.925
G1 F1800 X174.091 Y144.746 E190.19522
G0 F6000 X174.327 Y144.275
G1 F1800 X135.977 Y105.925 E192.90102
G0 F6000 X136.684 Y105.925
G1 F1800 X174.562 Y143.803 E195.57352
G0 F6000 X174.798 Y143.332
G1 F1800 X137.391 Y105.925 E198.21278
G0 F6000 X138.098 Y105.925
G1 F1800 X175.034 Y142.861 E200.81882
G0 F6000 X175.269 Y142.389
G1 F1800 X138.805 Y105.925 E203.39155
G0 F6000 X139.512 Y105.925
G1 F1800 X175.506 Y141.918 E205.93109
G0 F6000 X175.741 Y141.446
G1 F1800 X140.219 Y105.925 E208.43732
G0 F6000 X140.927 Y105.925
G1 F1800 X175.976 Y140.975 E210.91025
G0 F6000 X176.213 Y140.504
G1 F1800 X141.634 Y105.925 E213.34999
G0 F6000 X142.341 Y105.925
G1 F1800 X176.448 Y140.032 E215.75642
G0 F6000 X176.684 Y139.560
G1 F1800 X143.048 Y105.925 E218.12959
G0 F6000 X143.755 Y105.925
G1 F1800 X176.920 Y139.090 E220.46956
G0 F6000 X177.155 Y138.618
G1 F1800 X144.462 Y105.925 E222.77622
G0 F6000 X145.169 Y105.925
G1 F1800 X177.391 Y138.146 E225.04962
G0 F6000 X177.627 Y137.675
G1 F1800 X145.876 Y105.925 E227.28979
G0 F6000 X146.583 Y105.925
G1 F1800 X177.862 Y137.204 E229.49670
G0 F6000 X178.098 Y136.732
G1 F1800 X147.291 Y105.925 E231.67030
G0 F6000 X147.998 Y105.925
G1 F1800 X178.334 Y136.261 E233.81066
G0 F6000 X178.569 Y135.789
G1 F1800 X148.705 Y105.925 E235.91773
G0 F6000 X149.412 Y105.925
G1 F1800 X178.805 Y135.318 E237.99157
G0 F6000 X179.041 Y134.847
G1 F1800 X150.119 Y105.925 E240.03217
G0 F6000 X150.826 Y105.925
G1 F1800 X179.277 Y134.375 E242.03951
G0 F6000 X179.512 Y133.904
G1 F1800 X151.533 Y105.925 E244.01358
G0 F6000 X152.240 Y105.925
G1 F1800 X179.748 Y133.433 E245.95441
G0 F6000 X179.984 Y132.961
G1 F1800 X152.947 Y105.925 E247.86198
G0 F6000 X153.655 Y105.925
G1 F1800 X180.219 Y132.489 E249.73622
G0 F6000 X180.455 Y132.018
G1 F1800 X154.362 Y105.925 E251.57722
G0 F6000 X155.069 Y105.925
G1 F1800 X180.691 Y131.547 E253.38499
G0 F6000 X180.926 Y131.075
G1 F1800 X155.776 Y105.925 E255.15946
G0 F6000 X156.483 Y105.925
G1 F1800 X181.162 Y130.604 E256.90070
G0 F6000 X181.398 Y130.133
G1 F1800 X157.190 Y105.925 E258.60870
G0 F6000 X157.897 Y105.925
G1 F1800 X181.633 Y129.661 E260.28340
G0 F6000 X181.869 Y129.190
G1 F1800 X158.604 Y105.925 E261.92488
G0 F6000 X159.311 Y105.925
G1 F1800 X182.105 Y128.718 E263.53308
G0 F6000 X182.340 Y128.247
G1 F1800 X160.018 Y105.925 E265.10802
G0 F6000 X160.726 Y105.925
G1 F1800 X182.577 Y127.776 E266.64972
G0 F6000 X182.812 Y127.304
G1 F1800 X161.433 Y105.925 E268.15813
G0 F6000 X162.140 Y105.925
G1 F1800 X183.048 Y126.833 E269.63330
G0 F6000 X183.284 Y126.362
G1 F1800 X162.847 Y105.925 E271.07524
G0 F6000 X163.554 Y105.925
G1 F1800 X183.519 Y125.890 E272.48388
G0 F6000 X183.755 Y125.418
G1 F1800 X164.261 Y105.925 E273.85925
G0 F6000 X164.968 Y105.925
G1 F1800 X183.991 Y124.947 E275.20139
G0 F6000 X184.226 Y124.476
G1 F1800 X165.675 Y105.925 E276.51026
G0 F6000 X166.382 Y105.925
G1 F1800 X184.462 Y124.004 E277.78587
G0 F6000 X184.698 Y123.533
G1 F1800 X167.090 Y105.925 E279.02821
G0 F6000 X167.797 Y105.925
G1 F1800 X184.933 Y123.062 E280.23728
G0 F6000 X185.169 Y122.590
G1 F1800 X168.504 Y105.925 E281.41309
G0 F6000 X169.211 Y105.925
G1 F1800 X185.405 Y122.119 E282.55566
G0 F6000 X185.640 Y121.647
G1 F1800 X169.918 Y105.925 E283.66493
G0 F6000 X170.625 Y105.925
G1 F1800 X185.876 Y121.176 E284.74098
G0 F6000 X186.112 Y120.705
G1 F1800 X171.332 Y105.925 E285.78378
G0 F6000 X172.039 Y105.925
G1 F1800 X186.348 Y120.233 E286.79333
G0 F6000 X186.583 Y119.761
G1 F1800 X172.746 Y105.925 E287.76957
G0 F6000 X173.454 Y105.925
G1 F1800 X186.819 Y119.291 E288.71257
G0 F6000 X187.055 Y118.819
G1 F1800 X174.161 Y105.925 E289.62232
G0 F6000 X174.868 Y105.925
G1 F1800 X187.290 Y118.347 E290.49875
G0 F6000 X187.526 Y117.876
G1 F1800 X175.575 Y105.925 E291.34196
G0 F6000 X176.282 Y105.925
G1 F1800 X187.762 Y117.405 E292.15194
G0 F6000 X187.997 Y116.933
G1 F1800 X176.989 Y105.925 E292.92861
G0 F6000 X177.696 Y105.925
G1 F1800 X188.233 Y116.462 E293.67205
G0 F6000 X188.469 Y115.990
G1 F1800 X178.403 Y105.925 E294.38223
G0 F6000 X179.110 Y105.925
G1 F1800 X188.704 Y115.519 E295.05914
G0 F6000 X188.941 Y115.048
G1 F1800 X179.817 Y105.925 E295.70285
G0 F6000 X180.525 Y105.925
G1 F1800 X189.176 Y114.576 E296.31323
G0 F6000 X189.411 Y114.105
G1 F1800 X181.232 Y105.925 E296.89033
G0 F6000 X181.939 Y105.925
G1 F1800 X189.648 Y113.634 E297.43424
G0 F6000 X189.883 Y113.162
G1 F1800 X182.646 Y105.925 E297.94485
G0 F6000 X183.353 Y105.925
G1 F1800 X190.119 Y112.690 E298.42220
G0 F6000 X190.355 Y112.219
G1 F1800 X184.060 Y105.925 E298.86631
G0 F6000 X184.767 Y105.925
G1 F1800 X190.590 Y111.748 E299.27715
G0 F6000 X190.826 Y111.276
G1 F1800 X185.474 Y105.925 E299.65473
G0 F6000 X186.181 Y105.925
G1 F1800 X191.062 Y110.805 E299.99907
G0 F6000 X191.297 Y110.334
G1 F1800 X186.889 Y105.925 E300.31012
G0 F6000 X187.596 Y105.925
G1 F1800 X191.533 Y109.862 E300.58789
G0 F6000 X191.769 Y109.391
G1 F1800 X188.303 Y105.925 E300.83244
G0 F6000 X189.010 Y105.925
G1 F1800 X192.004 Y108.919 E301.04368
G0 F6000 X192.240 Y108.448
G1 F1800 X189.717 Y105.925 E301.22169
G0 F6000 X190.424 Y105.925
G1 F1800 X192.476 Y107.977 E301.36647
G0 F6000 X192.712 Y107.505
G1 F1800 X191.131 Y105.925 E301.47799
G0 F6000 X191.838 Y105.925
G1 F1800 X192.947 Y107.034 E301.55623
G0 F6000 X193.183 Y106.563
G1 F1800 X192.898 Y105.925 E301.60127
G1 X193.419 Y106.091 E301.62855
G0 F6000 X166.313 Y160.303
G1 F1800 X111.935 Y105.925 E305.46521
G0 F6000 X111.228 Y105.925
G1 F1800 X166.077 Y160.774 E309.33511
G0 F6000 X165.841 Y161.245
G1 F1800 X110.521 Y105.925 E313.23823
G0 F6000 X109.814 Y105.925
G1 F1800 X165.606 Y161.717 E317.17466
G0 F6000 X165.370 Y162.188
G1 F1800 X109.107 Y105.925 E321.14432
G0 F6000 X108.400 Y105.925
G1 F1800 X165.134 Y162.660 E325.14724
G0 F6000 X164.899 Y163.131
G1 F1800 X107.693 Y105.925 E329.18344
G0 F6000 X106.985 Y105.925
G1 F1800 X164.663 Y163.602 E333.25290
G0 F6000 X162.070 Y168.788
G1 F1800 X113.785 Y120.503 E336.65966
G0 F6000 X114.492 Y121.917
G1 F1800 X161.834 Y169.259 E339.99990
G0 F6000 X161.599 Y169.731
G1 F1800 X115.199 Y123.331 E343.27367
G0 F6000 X115.906 Y124.745
G1 F1800 X161.363 Y170.202 E346.48090
G0 F6000 X161.127 Y170.673
G1 F1800 X116.613 Y126.159 E349.62161
G0 F6000 X117.321 Y127.574
G1 F1800 X160.892 Y171.145 E352.69578
G0 F6000 X160.656 Y171.616
G1 F1800 X118.028 Y128.989 E355.70338
G0 F6000 X118.735 Y130.403
G1 F1800 X160.420 Y172.087 E358.64444
G0 F6000 X160.185 Y172.559
G1 F1800 X119.443 Y131.817 E361.51901
G0 F6000 X120.150 Y133.231
G1 F1800 X159.949 Y173.031 E364.32708
G0 F6000 X159.713 Y173.502
G1 F1800 X120.857 Y134.645 E367.06862
G0 F6000 X121.564 Y136.060
G1 F1800 X159.478 Y173.973 E369.74362
G0 F6000 X159.242 Y174.445
G1 F1800 X122.271 Y137.474 E372.35212
G0 F6000 X122.978 Y138.888
G1 F1800 X159.006 Y174.916 E374.89409
G0 F6000 X158.770 Y175.387
G1 F1800 X123.685 Y140.302 E377.36953
G0 F6000 X124.392 Y141.716
G1 F1800 X158.535 Y175.859 E379.77850
G0 F6000 X158.299 Y176.330
G1 F1800 X125.099 Y143.131 E382.12091
G0 F6000 X125.807 Y144.545
G1 F1800 X158.063 Y176.802 E384.39678
G0 F6000 X157.828 Y177.273
G1 F1800 X126.514 Y145.959 E386.60615
G0 F6000 X127.221 Y147.373
G1 F1800 X157.592 Y177.744 E388.74899
G0 F6000 X157.356 Y178.216
G1 F1800 X127.928 Y148.787 E390.82533
G0 F6000 X128.636 Y150.202
G1 F1800 X157.121 Y178.688 E392.83513
G0 F6000 X156.885 Y179.158
G1 F1800 X129.343 Y151.617 E394.77833
G0 F6000 X130.050 Y153.031
G1 F1800 X156.649 Y179.630 E396.65504
G0 F6000 X153.114 Y186.701
G1 F1800 X140.657 Y174.245 E397.53391
G0 F6000 X141.364 Y175.659
G1 F1800 X152.878 Y187.173 E398.34629
G0 F6000 X152.642 Y187.644
G1 F1800 X142.071 Y177.073 E399.09213
G0 F6000 X142.779 Y178.487
G1 F1800 X152.406 Y188.115 E399.77140
G0 F6000 X152.171 Y188.587
G1 F1800 X143.486 Y179.902 E400.38417
G0 F6000 X144.193 Y181.316
G1 F1800 X151.935 Y189.058 E400.93041
G0 F6000 X151.699 Y189.530
G1 F1800 X144.900 Y182.730 E401.41015
G0 F6000 X145.607 Y184.144
G1 F1800 X151.464 Y190.001 E401.82340
G0 F6000 X151.228 Y190.472
G1 F1800 X146.314 Y185.558 E402.17011
G0 F6000 X147.021 Y186.973
G1 F1800 X150.992 Y190.944 E402.45028
G0 F6000 X150.757 Y191.415
G1 F1800 X147.728 Y188.387 E402.66396
G0 F6000 X148.435 Y189.801
G1 F1800 X150.521 Y191.886 E402.81110
G0 F6000 X150.285 Y192.358
G1 F1800 X149.142 Y191.215 E402.89175
G0 F6000 X149.850 Y192.630
G1 F1800 X150.050 Y192.830 E402.90586
G0 F6000 X153.349 Y186.230
G1 F1800 X139.950 Y172.831 E403.85123
G0 F6000 X139.243 Y171.416
G1 F1800 X153.585 Y185.759 E404.86317
G0 F6000 X153.821 Y185.287
G1 F1800 X138.535 Y170.001 E405.94168
G0 F6000 X137.828 Y168.587
G1 F1800 X154.056 Y184.815 E407.08665
G0 F6000 X154.292 Y184.344
G1 F1800 X137.121 Y167.173 E408.29816
G0 F6000 X136.414 Y165.759
G1 F1800 X154.528 Y183.873 E409.57620
G0 F6000 X154.763 Y183.401
G1 F1800 X135.707 Y164.345 E410.92070
G0 F6000 X135.000 Y162.930
G1 F1800 X154.999 Y182.930 E412.33178
G0 F6000 X155.235 Y182.459
G1 F1800 X134.293 Y161.516 E413.80938
G0 F6000 X133.585 Y160.102
G1 F1800 X155.470 Y181.987 E415.35349
G0 F6000 X155.707 Y181.516
G1 F1800 X132.878 Y158.688 E416.96416
G0 F6000 X132.171 Y157.273
G1 F1800 X155.942 Y181.044 E418.64133
G0 F6000 X156.177 Y180.573
G1 F1800 X131.464 Y155.859 E420.38501
G0 F6000 X130.757 Y154.445
G1 F1800 X156.414 Y180.102 E422.19525
;LAYER:1
M106 S63
G0 F6000 X150.000 Y193.323 Z0.400
;TYPE:WALL-INNER
G1 F1920 X106.213 Y105.750 E427.07999
G1 X193.787 Y105.750 E431.44907
G1 X150.000 Y193.323 E436.33381
G0 F6000 X150.000 Y194.440
;TYPE:WALL-OUTER
G1 F1740 X105.405 Y105.250 E441.30873
G1 X194.595 Y105.250 E445.75844
G1 X150.000 Y194.440 E450.73337
G1 F2400 E442.73337
G0 F6000 X149.888 Y192.704
;TYPE:SKIN
G1 F2400 E450.73337
G1 F1740 X150.335 Y192.257 E450.76490
G0 F6000 X149.652 Y192.233
G1 F1740 X151.042 Y190.843 E450.86298
G0 F6000 X151.750 Y189.428
G1 F1740 X149.416 Y191.762 E451.02765
G0 F6000 X149.181 Y191.290
G1 F1740 X152.457 Y188.014 E451.25879
G0 F6000 X153.164 Y186.600
G1 F1740 X148.945 Y190.819 E451.55647
G0 F6000 X148.709 Y190.348
G1 F1740 X153.871 Y185.186 E451.92067
G0 F6000 X154.578 Y183.772
G1 F1740 X148.474 Y189.876 E452.35134
G0 F6000 X148.238 Y189.404
G1 F1740 X155.285 Y182.357 E452.84855
G0 F6000 X155.992 Y180.943
G1 F1740 X148.002 Y188.933 E453.41228
G0 F6000 X147.766 Y188.462
G1 F1740 X156.699 Y179.529 E454.04256
G0 F6000 X157.406 Y178.115
G1 F1740 X147.531 Y187.990 E454.73929
G0 F6000 X147.295 Y187.519
G1 F1740 X158.114 Y176.701 E455.50259
G0 F6000 X158.821 Y175.286
G1 F1740 X147.059 Y187.048 E456.33247
G0 F6000 X146.824 Y186.576
G1 F1740 X159.528 Y173.872 E457.22880
G0 F6000 X143.524 Y179.977
G1 F1740 X169.427 Y154.073 E459.05643
G0 F6000 X168.720 Y155.487
G1 F1740 X143.759 Y180.448 E460.81757
G0 F6000 X143.995 Y180.919
G1 F1740 X168.013 Y156.902 E462.51213
G0 F6000 X167.306 Y158.316
G1 F1740 X144.231 Y181.391 E464.14020
G0 F6000 X144.466 Y181.862
G1 F1740 X166.599 Y159.730 E465.70176
G0 F6000 X170.134 Y152.659
G1 F1740 X143.288 Y179.505 E467.59590
G0 F6000 X143.052 Y179.034
G1 F1740 X170.841 Y151.245 E469.55656
G0 F6000 X171.549 Y149.830
G1 F1740 X142.817 Y178.562 E471.58376
G0 F6000 X142.581 Y178.091
G1 F1740 X172.256 Y148.416 E473.67749
G0 F6000 X172.963 Y147.002
G1 F1740 X142.345 Y177.620 E475.83775
G0 F6000 X142.110 Y177.148
G1 F1740 X173.670 Y145.588 E478.06448
G0 F6000 X174.377 Y144.174
G1 F1740 X141.874 Y176.676 E480.35771
G0 F6000 X141.638 Y176.206
G1 F1740 X175.084 Y142.759 E482.71754
G0 F6000 X175.791 Y141.345
G1 F1740 X141.402 Y175.734 E485.14387
G0 F6000 X141.167 Y175.262
G1 F1740 X176.498 Y139.931 E487.63666
G0 F6000 X177.205 Y138.517
G1 F1740 X140.931 Y174.791 E490.19599
G0 F6000 X140.695 Y174.320
G1 F1740 X177.913 Y137.103 E492.82189
G0 F6000 X178.620 Y135.688
G1 F1740 X140.460 Y173.848 E495.51428
G0 F6000 X140.224 Y173.377
G1 F1740 X179.327 Y134.274 E498.27321
G0 F6000 X180.034 Y132.860
G1 F1740 X139.988 Y172.905 E501.09863
G0 F6000 X139.753 Y172.434
G1 F1740 X180.741 Y131.446 E503.99056
G0 F6000 X181.448 Y130.031
G1 F1740 X139.517 Y171.963 E506.94905
G0 F6000 X139.281 Y171.491
G1 F1740 X182.155 Y128.617 E509.97404
G0 F6000 X182.862 Y127.203
G1 F1740 X139.045 Y171.020 E513.06557
G0 F6000 X138.810 Y170.549
G1 F1740 X183.569 Y125.789 E516.22359
G0 F6000 X184.276 Y124.375
G1 F1740 X138.574 Y170.077 E519.44812
G0 F6000 X138.338 Y169.606
G1 F1740 X184.984 Y122.960 E522.73925
G0 F6000 X185.691 Y121.546
G1 F1740 X138.102 Y169.134 E526.09687
G0 F6000 X137.867 Y168.663
G1 F1740 X186.398 Y120.132 E529.52099
G0 F6000 X187.105 Y118.718
G1 F1740 X137.631 Y168.192 E533.01165
G0 F6000 X137.395 Y167.720
G1 F1740 X187.812 Y117.304 E536.56881
G0 F6000 X188.519 Y115.889
G1 F1740 X137.160 Y167.249 E540.19250
G0 F6000 X136.924 Y166.778
G1 F1740 X189.226 Y114.475 E543.88272
G0 F6000 X189.933 Y113.061
G1 F1740 X136.688 Y166.306 E547.63945
G0 F6000 X136.453 Y165.834
G1 F1740 X190.640 Y111.647 E551.46263
G0 F6000 X191.348 Y110.232
G1 F1740 X136.217 Y165.363 E555.35242
G0 F6000 X135.981 Y164.892
G1 F1740 X192.055 Y108.818 E559.30874
G0 F6000 X192.762 Y107.404
G1 F1740 X135.746 Y164.420 E563.33153
G0 F6000 X135.509 Y163.949
G1 F1740 X193.469 Y105.990 E567.42089
G0 F6000 X192.827 Y105.925
G1 F1740 X135.274 Y163.478 E571.48156
G0 F6000 X135.039 Y163.006
G1 F1740 X192.120 Y105.925 E575.50893
G0 F6000 X191.413 Y105.925
G1 F1740 X134.802 Y162.535 E579.50311
G0 F6000 X134.567 Y162.063
G1 F1740 X190.705 Y105.925 E583.46395
G0 F6000 X189.998 Y105.925
G1 F1740 X134.331 Y161.592 E587.39156
G0 F6000 X134.095 Y161.121
G1 F1740 X189.291 Y105.925 E591.28593
G0 F6000 X188.584 Y105.925
G1 F1740 X133.860 Y160.649 E595.14701
G0 F6000 X133.624 Y160.178
G1 F1740 X187.877 Y105.925 E598.97485
G0 F6000 X187.170 Y105.925
G1 F1740 X133.388 Y159.707 E602.76946
G0 F6000 X133.153 Y159.235
G1 F1740 X186.463 Y105.925 E606.53077
G0 F6000 X185.756 Y105.925
G1 F1740 X132.917 Y158.763 E610.25881
G0 F6000 X132.681 Y158.292
G1 F1740 X185.049 Y105.925 E613.95362
G0 F6000 X184.342 Y105.925
G1 F1740 X132.446 Y157.821 E617.61516
G0 F6000 X132.210 Y157.349
G1 F1740 X183.634 Y105.925 E621.24340
G0 F6000 X182.927 Y105.925
G1 F1740 X131.974 Y156.878 E624.83841
G0 F6000 X131.738 Y156.407
G1 F1740 X182.220 Y105.925 E628.40019
G0 F6000 X181.513 Y105.925
G1 F1740 X131.503 Y155.935 E631.92867
G0 F6000 X131.267 Y155.464
G1 F1740 X180.806 Y105.925 E635.42391
G0 F6000 X180.099 Y105.925
G1 F1740 X131.031 Y154.992 E638.88589
G0 F6000 X130.796 Y154.521
G1 F1740 X179.392 Y105.925 E642.31460
G0 F6000 X178.685 Y105.925
G1 F1740 X130.560 Y154.050 E645.71008
G0 F6000 X130.324 Y153.578
G1 F1740 X177.978 Y105.925 E649.07229
G0 F6000 X177.270 Y105.925
G1 F1740 X130.089 Y153.107 E652.40120
G0 F6000 X129.853 Y152.636
G1 F1740 X176.563 Y105.925 E655.69688
G0 F6000 X175.856 Y105.925
G1 F1740 X129.617 Y152.164 E658.95929
G0 F6000 X129.382 Y151.692
G1 F1740 X175.149 Y105.925 E662.18840
G0 F6000 X174.442 Y105.925
G1 F1740 X129.145 Y151.221 E665.38431
G0 F6000 X128.910 Y150.750
G1 F1740 X173.735 Y105.925 E668.54696
G0 F6000 X173.028 Y105.925
G1 F1740 X128.675 Y150.278 E671.67630
G0 F6000 X128.438 Y149.807
G1 F1740 X172.321 Y105.925 E674.77245
G0 F6000 X171.614 Y105.925
G1 F1740 X128.203 Y149.336 E677.83533
G0 F6000 X127.967 Y148.865
G1 F1740 X170.907 Y105.925 E680.86498
G0 F6000 X170.199 Y105.925
G1 F1740 X127.731 Y148.393 E683.86132
G0 F6000 X127.496 Y147.921
G1 F1740 X169.492 Y105.925 E686.82437
G0 F6000 X168.785 Y105.925
G1 F1740 X127.260 Y147.450 E689.75418
G0 F6000 X127.024 Y146.979
G1 F1740 X168.078 Y105.925 E692.65076
G0 F6000 X167.371 Y105.925
G1 F1740 X126.789 Y146.507 E695.51404
G0 F6000 X126.553 Y146.036
G1 F1740 X166.664 Y105.925 E698.34409
G0 F6000 X165.957 Y105.925
G1 F1740 X126.317 Y145.565 E701.14091
G0 F6000 X126.082 Y145.093
G1 F1740 X165.250 Y105.925 E703.90442
G0 F6000 X164.543 Y105.925
G1 F1740 X125.845 Y144.622 E706.63474
G0 F6000 X125.610 Y144.150
G1 F1740 X163.835 Y105.925 E709.33172
G0 F6000 X163.128 Y105.925
G1 F1740 X125.374 Y143.679 E711.99547
G0 F6000 X125.138 Y143.208
G1 F1740 X162.421 Y105.925 E714.62598
G0 F6000 X161.714 Y105.925
G1 F1740 X124.903 Y142.736 E717.22320
G0 F6000 X124.667 Y142.264
G1 F1740 X161.007 Y105.925 E719.78715
G0 F6000 X160.300 Y105.925
G1 F1740 X124.431 Y141.794 E722.31790
G0 F6000 X124.196 Y141.322
G1 F1740 X159.593 Y105.925 E724.81535
G0 F6000 X158.886 Y105.925
G1 F1740 X123.960 Y140.850 E727.27953
G0 F6000 X123.724 Y140.379
G1 F1740 X158.179 Y105.925 E729.71048
G0 F6000 X157.471 Y105.925
G1 F1740 X123.489 Y139.908 E732.10813
G0 F6000 X123.253 Y139.436
G1 F1740 X156.764 Y105.925 E734.47251
G0 F6000 X156.057 Y105.925
G1 F1740 X123.017 Y138.965 E736.80366
G0 F6000 X122.782 Y138.493
G1 F1740 X155.350 Y105.925 E739.10151
G0 F6000 X154.643 Y105.925
G1 F1740 X122.546 Y138.022 E741.36613
G0 F6000 X122.310 Y137.551
G1 F1740 X153.936 Y105.925 E743.59751
G0 F6000 X153.229 Y105.925
G1 F1740 X122.074 Y137.079 E745.79563
G0 F6000 X121.839 Y136.608
G1 F1740 X152.522 Y105.925 E747.96048
G0 F6000 X151.815 Y105.925
G1 F1740 X121.603 Y136.137 E750.09210
G0 F6000 X121.367 Y135.665
G1 F1740 X151.108 Y105.925 E752.19045
G0 F6000 X150.400 Y105.925
G1 F1740 X121.132 Y135.193 E754.25547
G0 F6000 X120.896 Y134.722
G1 F1740 X149.693 Y105.925 E756.28725
G0 F6000 X148.986 Y105.925
G1 F1740 X120.660 Y134.251 E758.28581
G0 F6000 X120.425 Y133.779
G1 F1740 X148.279 Y105.925 E760.25106
G0 F6000 X147.572 Y105.925
G1 F1740 X120.189 Y133.308 E762.18307
G0 F6000 X119.953 Y132.837
G1 F1740 X146.865 Y105.925 E764.08186
G0 F6000 X146.158 Y105.925
G1 F1740 X119.718 Y132.365 E765.94735
G0 F6000 X119.481 Y131.894
G1 F1740 X145.451 Y105.925 E767.77963
G0 F6000 X144.744 Y105.925
G1 F1740 X119.246 Y131.422 E769.57862
G0 F6000 X119.011 Y130.951
G1 F1740 X144.036 Y105.925 E771.34431
G0 F6000 X143.329 Y105.925
G1 F1740 X118.774 Y130.480 E773.07679
G0 F6000 X118.539 Y130.008
G1 F1740 X142.622 Y105.925 E774.77598
G0 F6000 X141.915 Y105.925
G1 F1740 X118.303 Y129.537 E776.44193
G0 F6000 X118.067 Y129.066
G1 F1740 X141.208 Y105.925 E778.07466
G0 F6000 X140.501 Y105.925
G1 F1740 X117.832 Y128.594 E779.67408
G0 F6000 X117.596 Y128.122
G1 F1740 X139.794 Y105.925 E781.24023
G0 F6000 X139.087 Y105.925
G1 F1740 X117.360 Y127.651 E782.77315
G0 F6000 X117.125 Y127.180
G1 F1740 X138.380 Y105.925 E784.27281
G0 F6000 X137.672 Y105.925
G1 F1740 X116.888 Y126.709 E785.73923
G0 F6000 X116.653 Y126.237
G1 F1740 X136.965 Y105.925 E787.17235
G0 F6000 X136.258 Y105.925
G1 F1740 X116.418 Y125.766 E788.57221
G0 F6000 X116.181 Y125.295
G1 F1740 X135.551 Y105.925 E789.93886
G0 F6000 X134.844 Y105.925
G1 F1740 X115.946 Y124.823 E791.27222
G0 F6000 X115.710 Y124.351
G1 F1740 X134.137 Y105.925 E792.57231
G0 F6000 X133.430 Y105.925
G1 F1740 X115.474 Y123.880 E793.83917
G0 F6000 X115.239 Y123.409
G1 F1740 X132.723 Y105.925 E795.07276
G0 F6000 X132.016 Y105.925
G1 F1740 X115.003 Y122.937 E796.27308
G0 F6000 X114.767 Y122.466
G1 F1740 X131.309 Y105.925 E797.44017
G0 F6000 X130.601 Y105.925
G1 F1740 X114.532 Y121.995 E798.57396
G0 F6000 X114.296 Y121.523
G1 F1740 X129.894 Y105.925 E799.67449
G0 F6000 X129.187 Y105.925
G1 F1740 X114.060 Y121.052 E800.74178
G0 F6000 X113.825 Y120.580
G1 F1740 X128.480 Y105.925 E801.77577
G0 F6000 X127.773 Y105.925
G1 F1740 X113.589 Y120.109 E802.77652
G0 F6000 X113.353 Y119.638
G1 F1740 X127.066 Y105.925 E803.74405
G0 F6000 X126.359 Y105.925
G1 F1740 X113.117 Y119.166 E804.67831
G0 F6000 X112.882 Y118.694
G1 F1740 X125.652 Y105.925 E805.57927
G0 F6000 X124.945 Y105.925
G1 F1740 X112.646 Y118.224 E806.44703
G0 F6000 X112.410 Y117.752
G1 F1740 X124.237 Y105.925 E807.28149
G0 F6000 X123.530 Y105.925
G1 F1740 X112.175 Y117.280 E808.08264
G0 F6000 X111.939 Y116.809
G1 F1740 X122.823 Y105.925 E808.85057
G0 F6000 X122.116 Y105.925
G1 F1740 X111.703 Y116.338 E809.58526
G0 F6000 X111.468 Y115.866
G1 F1740 X121.409 Y105.925 E810.28665
G0 F6000 X120.702 Y105.925
G1 F1740 X111.232 Y115.395 E810.95481
G0 F6000 X110.996 Y114.923
G1 F1740 X119.995 Y105.925 E811.58971
G0 F6000 X119.288 Y105.925
G1 F1740 X110.761 Y114.452 E812.19133
G0 F6000 X110.525 Y113.981
G1 F1740 X118.581 Y105.925 E812.75973
G0 F6000 X117.873 Y105.925
G1 F1740 X110.289 Y113.509 E813.29482
G0 F6000 X110.054 Y113.038
G1 F1740 X117.166 Y105.925 E813.79664
G0 F6000 X116.459 Y105.925
G1 F1740 X109.817 Y112.567 E814.26527
G0 F6000 X109.582 Y112.095
G1 F1740 X115.752 Y105.925 E814.70060
G0 F6000 X115.045 Y105.925
G1 F1740 X109.346 Y111.623 E815.10266
G0 F6000 X109.110 Y111.152
G1 F1740 X114.338 Y105.925 E815.47149
G0 F6000 X113.631 Y105.925
G1 F1740 X108.875 Y110.681 E815.80705
G0 F6000 X108.639 Y110.209
G1 F1740 X112.924 Y105.925 E816.10934
G0 F6000 X112.217 Y105.925
G1 F1740 X108.403 Y109.738 E816.37841
G0 F6000 X108.168 Y109.267
G1 F1740 X111.510 Y105.925 E816.61420
G0 F6000 X110.802 Y105.925
G1 F1740 X107.932 Y108.795 E816.81670
G0 F6000 X107.696 Y108.324
G1 F1740 X110.095 Y105.925 E816.98596
G0 F6000 X109.388 Y105.925
G1 F1740 X107.461 Y107.852 E817.12192
G0 F6000 X107.225 Y107.381
G1 F1740 X108.681 Y105.925 E817.22465
G0 F6000 X107.974 Y105.925
G1 F1740 X106.989 Y106.910 E817.29415
G0 F6000 X106.754 Y106.438
G1 F1740 X107.267 Y105.925 E817.33034
G0 F6000 X165.892 Y161.144
G1 F1740 X144.703 Y182.333 E818.82534
G0 F6000 X144.938 Y182.805
G1 F1740 X165.185 Y162.558 E820.25387
G0 F6000 X164.477 Y163.973
G1 F1740 X145.173 Y183.277 E821.61588
G0 F6000 X145.410 Y183.748
G1 F1740 X163.770 Y165.387 E822.91131
G0 F6000 X163.063 Y166.801
G1 F1740 X145.645 Y184.219 E824.14024
G0 F6000 X145.881 Y184.691
G1 F1740 X162.356 Y168.215 E825.30268
G0 F6000 X161.649 Y169.629
G1 F1740 X146.117 Y185.162 E826.39858
G0 F6000 X146.352 Y185.633
G1 F1740 X160.942 Y171.044 E827.42795
G0 F6000 X160.235 Y172.458
G1 F1740 X146.588 Y186.105 E828.39082
;LAYER:2
M106 S127
G0 F6000 X150.000 Y193.323 Z0.600
;TYPE:WALL-INNER
G1 F2100 X106.213 Y105.750 E833.27556
G1 X193.787 Y105.750 E837.64464
G1 X150.000 Y193.323 E842.52938
G0 F6000 X150.000 Y194.440
;TYPE:WALL-OUTER
G1 F1800 X105.405 Y105.250 E847.50431
G1 X194.595 Y105.250 E851.95401
G1 X150.000 Y194.440 E856.92894
G1 F2400 E848.92894
G0 F6000 X150.050 Y192.830
;TYPE:SKIN
G1 F2400 E856.92894
G1 F1800 X149.850 Y192.630 E856.94305
G0 F6000 X150.285 Y192.358
G1 F1800 X149.142 Y191.215 E857.02369
G0 F6000 X150.521 Y191.886
G1 F1800 X148.435 Y189.801 E857.17084
G0 F6000 X147.728 Y188.387
G1 F1800 X150.757 Y191.415 E857.38451
G0 F6000 X150.992 Y190.944
G1 F1800 X147.021 Y186.973 E857.66469
G0 F6000 X146.314 Y185.558
G1 F1800 X151.228 Y190.472 E858.01140
G0 F6000 X151.464 Y190.001
G1 F1800 X145.607 Y184.144 E858.42464
G0 F6000 X144.900 Y182.730
G1 F1800 X151.699 Y189.530 E858.90438
G0 F6000 X151.935 Y189.058
G1 F1800 X144.193 Y181.316 E859.45062
G0 F6000 X143.486 Y179.902
G1 F1800 X152.171 Y188.587 E860.06340
G0 F6000 X152.406 Y188.115
G1 F1800 X142.779 Y178.487 E860.74267
G0 F6000 X142.071 Y177.073
G1 F1800 X152.642 Y187.644 E861.48851
G0 F6000 X152.878 Y187.173
G1 F1800 X141.364 Y175.659 E862.30088
G0 F6000 X140.657 Y174.245
G1 F1800 X153.114 Y186.701 E863.17976
G0 F6000 X153.349 Y186.230
G1 F1800 X139.950 Y172.831 E864.12513
G0 F6000 X139.243 Y171.416
G1 F1800 X153.585 Y185.759 E865.13707
G0 F6000 X153.821 Y185.287
G1 F1800 X138.535 Y170.001 E866.21558
G0 F6000 X137.828 Y168.587
G1 F1800 X154.056 Y184.815 E867.36055
G0 F6000 X154.292 Y184.344
G1 F1800 X137.121 Y167.173 E868.57206
G0 F6000 X136.414 Y165.759
G1 F1800 X154.528 Y183.873 E869.85010
G0 F6000 X154.763 Y183.401
G1 F1800 X135.707 Y164.345 E871.19460
G0 F6000 X135.000 Y162.930
G1 F1800 X154.999 Y182.930 E872.60568
G0 F6000 X155.235 Y182.459
G1 F1800 X134.293 Y161.516 E874.08328
G0 F6000 X133.585 Y160.102
G1 F1800 X155.470 Y181.987 E875.62739
G0 F6000 X155.707 Y181.516
G1 F1800 X132.878 Y158.688 E877.23806
G0 F6000 X132.171 Y157.273
G1 F1800 X155.942 Y181.044 E878.91523
G0 F6000 X156.177 Y180.573
G1 F1800 X131.464 Y155.859 E880.65891
G0 F6000 X130.757 Y154.445
G1 F1800 X156.414 Y180.102 E882.46915
G0 F6000 X156.649 Y179.630
G1 F1800 X130.050 Y153.031 E884.34585
G0 F6000 X129.343 Y151.617
G1 F1800 X156.885 Y179.158 E886.28905
G0 F6000 X157.121 Y178.688
G1 F1800 X128.636 Y150.202 E888.29886
G0 F6000 X127.928 Y148.787
G1 F1800 X157.356 Y178.216 E890.37520
G0 F6000 X157.592 Y177.744
G1 F1800 X127.221 Y147.373 E892.51803
G0 F6000 X126.514 Y145.959
G1 F1800 X157.828 Y177.273 E894.72741
G0 F6000 X158.063 Y176.802
G1 F1800 X125.807 Y144.545 E897.00328
G0 F6000 X125.099 Y143.131
G1 F1800 X158.299 Y176.330 E899.34568
G0 F6000 X158.535 Y175.859
G1 F1800 X124.392 Y141.716 E901.75465
G0 F6000 X123.685 Y140.302
G1 F1800 X158.770 Y175.387 E904.23009
G0 F6000 X159.006 Y174.916
G1 F1800 X122.978 Y138.888 E906.77206
G0 F6000 X122.271 Y137.474
G1 F1800 X159.242 Y174.445 E909.38056
G0 F6000 X159.478 Y173.973
G1 F1800 X121.564 Y136.060 E912.05557
G0 F6000 X120.857 Y134.645
G1 F1800 X159.713 Y173.502 E914.79710
G0 F6000 X159.949 Y173.031
G1 F1800 X120.150 Y133.231 E917.60517
G0 F6000 X119.443 Y131.817
G1 F1800 X160.185 Y172.559 E920.47974
G0 F6000 X160.420 Y172.087
G1 F1800 X118.735 Y130.403 E923.42081
G0 F6000 X118.028 Y128.989
G1 F1800 X160.656 Y171.616 E926.42841
G0 F6000 X160.892 Y171.145
G1 F1800 X117.321 Y127.574 E929.50258
G0 F6000 X116.613 Y126.159
G1 F1800 X161.127 Y170.673 E932.64328
G0 F6000 X161.363 Y170.202
G1 F1800 X115.906 Y124.745 E935.85052
G0 F6000 X115.199 Y123.331
G1 F1800 X161.599 Y169.731 E939.12429
G0 F6000 X161.834 Y169.259
G1 F1800 X114.492 Y121.917 E942.46452
G0 F6000 X113.785 Y120.503
G1 F1800 X162.070 Y168.788 E945.87129
G0 F6000 X162.306 Y168.316
G1 F1800 X113.078 Y119.088 E949.34459
G0 F6000 X112.371 Y117.674
G1 F1800 X162.541 Y167.845 E952.88439
G0 F6000 X162.778 Y167.374
G1 F1800 X111.664 Y116.260 E956.49076
G0 F6000 X110.957 Y114.846
G1 F1800 X163.013 Y166.902 E960.16359
G0 F6000 X163.249 Y166.431
G1 F1800 X110.249 Y113.431 E963.90303
G0 F6000 X109.542 Y112.017
G1 F1800 X163.485 Y165.960 E967.70900
G0 F6000 X163.720 Y165.488
G1 F1800 X108.835 Y110.603 E971.58143
G0 F6000 X108.128 Y109.189
G1 F1800 X163.956 Y165.016 E975.52036
G0 F6000 X164.192 Y164.545
G1 F1800 X107.421 Y107.775 E979.52583
G0 F6000 X106.714 Y106.360
G1 F1800 X164.427 Y164.074 E983.59782
G0 F6000 X164.663 Y163.602
G1 F1800 X106.985 Y105.925 E987.66728
G0 F6000 X107.693 Y105.925
G1 F1800 X164.899 Y163.131 E991.70348
G0 F6000 X165.134 Y162.660
G1 F1800 X108.400 Y105.925 E995.70640
G0 F6000 X109.107 Y105.925
G1 F1800 X165.370 Y162.188 E999.67606
G0 F6000 X165.606 Y161.717
G1 F1800 X109.814 Y105.925 E1003.61249
G0 F6000 X110.521 Y105.925
G1 F1800 X165.841 Y161.245 E1007.51561
G0 F6000 X166.077 Y160.774
G1 F1800 X111.228 Y105.925 E1011.38550
G0 F6000 X111.935 Y105.925
G1 F1800 X166.313 Y160.303 E1015.22217
G0 F6000 X166.549 Y159.831
G1 F1800 X112.642 Y105.925 E1019.02556
G0 F6000 X113.349 Y105.925
G1 F1800 X166.784 Y159.359 E1022.79565
G0 F6000 X167.020 Y158.889
G1 F1800 X114.057 Y105.925 E1026.53251
G0 F6000 X114.764 Y105.925
G1 F1800 X167.256 Y158.417 E1030.23611
G0 F6000 X167.491 Y157.945
G1 F1800 X115.471 Y105.925 E1033.90640
G0 F6000 X116.178 Y105.925
G1 F1800 X167.727 Y157.474 E1037.54346
G0 F6000 X167.963 Y157.003
G1 F1800 X116.885 Y105.925 E1041.14729
G0 F6000 X117.592 Y105.925
G1 F1800 X168.198 Y156.531 E1044.71782
G0 F6000 X168.434 Y156.060
G1 F1800 X118.299 Y105.925 E1048.25511
G0 F6000 X119.006 Y105.925
G1 F1800 X168.670 Y155.588 E1051.75914
G0 F6000 X168.905 Y155.117
G1 F1800 X119.713 Y105.925 E1055.22990
G0 F6000 X120.420 Y105.925
G1 F1800 X169.142 Y154.646 E1058.66747
G0 F6000 X169.377 Y154.174
G1 F1800 X121.128 Y105.925 E1062.07169
G0 F6000 X121.835 Y105.925
G1 F1800 X169.612 Y153.703 E1065.44265
G0 F6000 X169.849 Y153.232
G1 F1800 X122.542 Y105.925 E1068.78042
G0 F6000 X123.249 Y105.925
G1 F1800 X170.084 Y152.760 E1072.08488
G0 F6000 X170.320 Y152.288
G1 F1800 X123.956 Y105.925 E1075.35608
G0 F6000 X124.663 Y105.925
G1 F1800 X170.556 Y151.817 E1078.59404
G0 F6000 X170.791 Y151.346
G1 F1800 X125.370 Y105.925 E1081.79874
G0 F6000 X126.077 Y105.925
G1 F1800 X171.027 Y150.874 E1084.97017
G0 F6000 X171.263 Y150.403
G1 F1800 X126.784 Y105.925 E1088.10837
G0 F6000 X127.492 Y105.925
G1 F1800 X171.498 Y149.932 E1091.21326
G0 F6000 X171.734 Y149.460
G1 F1800 X128.199 Y105.925 E1094.28489
G0 F6000 X128.906 Y105.925
G1 F1800 X171.970 Y148.989 E1097.32329
G0 F6000 X172.205 Y148.517
G1 F1800 X129.613 Y105.925 E1100.32838
G0 F6000 X130.320 Y105.925
G1 F1800 X172.441 Y148.046 E1103.30025
G0 F6000 X172.677 Y147.575
G1 F1800 X131.027 Y105.925 E1106.23888
G0 F6000 X131.734 Y105.925
G1 F1800 X172.913 Y147.103 E1109.14425
G0 F6000 X173.148 Y146.632
G1 F1800 X132.441 Y105.925 E1112.01635
G0 F6000 X133.148 Y105.925
G1 F1800 X173.384 Y146.161 E1114.85521
G0 F6000 X173.620 Y145.689
G1 F1800 X133.856 Y105.925 E1117.66078
G0 F6000 X134.563 Y105.925
G1 F1800 X173.855 Y145.217 E1120.43304
G0 F6000 X174.091 Y144.746
G1 F1800 X135.270 Y105.925 E1123.17207
G0 F6000 X135.977 Y105.925
G1 F1800 X174.327 Y144.275 E1125.87787
G0 F6000 X174.562 Y143.803
G1 F1800 X136.684 Y105.925 E1128.55037
G0 F6000 X137.391 Y105.925
G1 F1800 X174.798 Y143.332 E1131.18963
G0 F6000 X175.034 Y142.861
G1 F1800 X138.098 Y105.925 E1133.79567
G0 F6000 X138.805 Y105.925
G1 F1800 X175.269 Y142.389 E1136.36840
G0 F6000 X175.506 Y141.918
G1 F1800 X139.512 Y105.925 E1138.90794
G0 F6000 X140.219 Y105.925
G1 F1800 X175.741 Y141.446 E1141.41417
G0 F6000 X175.976 Y140.975
G1 F1800 X140.927 Y105.925 E1143.88710
G0 F6000 X141.634 Y105.925
G1 F1800 X176.213 Y140.504 E1146.32684
G0 F6000 X176.448 Y140.032
G1 F1800 X142.341 Y105.925 E1148.73327
G0 F6000 X143.048 Y105.925
G1 F1800 X176.684 Y139.560 E1151.10644
G0 F6000 X176.920 Y139.090
G1 F1800 X143.755 Y105.925 E1153.44641
G0 F6000 X144.462 Y105.925
G1 F1800 X177.155 Y138.618 E1155.75307
G0 F6000 X177.391 Y138.146
G1 F1800 X145.169 Y105.925 E1158.02647
G0 F6000 X145.876 Y105.925
G1 F1800 X177.627 Y137.675 E1160.26664
G0 F6000 X177.862 Y137.204
G1 F1800 X146.583 Y105.925 E1162.47355
G0 F6000 X147.291 Y105.925
G1 F1800 X178.098 Y136.732 E1164.64715
G0 F6000 X178.334 Y136.261
G1 F1800 X147.998 Y105.925 E1166.78752
G0 F6000 X148.705 Y105.925
G1 F1800 X178.569 Y135.789 E1168.89458
G0 F6000 X178.805 Y135.318
G1 F1800 X149.412 Y105.925 E1170.96842
G0 F6000 X150.119 Y105.925
G1 F1800 X179.041 Y134.847 E1173.00902
G0 F6000 X179.277 Y134.375
G1 F1800 X150.826 Y105.925 E1175.01636
G0 F6000 X151.533 Y105.925
G1 F1800 X179.512 Y133.904 E1176.99043
G0 F6000 X179.748 Y133.433
G1 F1800 X152.240 Y105.925 E1178.93126
G0 F6000 X152.947 Y105.925
G1 F1800 X179.984 Y132.961 E1180.83884
G0 F6000 X180.219 Y132.489
G1 F1800 X153.655 Y105.925 E1182.71307
G0 F6000 X154.362 Y105.925
G1 F1800 X180.455 Y132.018 E1184.55407
G0 F6000 X180.691 Y131.547
G1 F1800 X155.069 Y105.925 E1186.36184
G0 F6000 X155.776 Y105.925
G1 F1800 X180.926 Y131.075 E1188.13631
G0 F6000 X181.162 Y130.604
G1 F1800 X156.483 Y105.925 E1189.87755
G0 F6000 X157.190 Y105.925
G1 F1800 X181.398 Y130.133 E1191.58555
G0 F6000 X181.633 Y129.661
G1 F1800 X157.897 Y105.925 E1193.26025
G0 F6000 X158.604 Y105.925
G1 F1800 X181.869 Y129.190 E1194.90173
G0 F6000 X182.105 Y128.718
G1 F1800 X159.311 Y105.925 E1196.50993
G0 F6000 X160.018 Y105.925
G1 F1800 X182.340 Y128.247 E1198.08487
G0 F6000 X182.577 Y127.776
G1 F1800 X160.726 Y105.925 E1199.62657
G0 F6000 X161.433 Y105.925
G1 F1800 X182.812 Y127.304 E1201.13498
G0 F6000 X183.048 Y126.833
G1 F1800 X162.140 Y105.925 E1202.61015
G0 F6000 X162.847 Y105.925
G1 F1800 X183.284 Y126.362 E1204.05209
G0 F6000 X183.519 Y125.890
G1 F1800 X163.554 Y105.925 E1205.46073
G0 F6000 X164.261 Y105.925
G1 F1800 X183.755 Y125.418 E1206.83610
G0 F6000 X183.991 Y124.947
G1 F1800 X164.968 Y105.925 E1208.17824
G0 F6000 X165.675 Y105.925
G1 F1800 X184.226 Y124.476 E1209.48711
G0 F6000 X184.462 Y124.004
G1 F1800 X166.382 Y105.925 E1210.76272
G0 F6000 X167.090 Y105.925
G1 F1800 X184.698 Y123.533 E1212.00506
G0 F6000 X184.933 Y123.062
G1 F1800 X167.797 Y105.925 E1213.21413
G0 F6000 X168.504 Y105.925
G1 F1800 X185.169 Y122.590 E1214.38994
G0 F6000 X185.405 Y122.119
G1 F1800 X169.211 Y105.925 E1215.53251
G0 F6000 X169.918 Y105.925
G1 F1800 X185.640 Y121.647 E1216.64179
G0 F6000 X185.876 Y121.176
G1 F1800 X170.625 Y105.925 E1217.71783
G0 F6000 X171.332 Y105.925
G1 F1800 X186.112 Y120.705 E1218.76063
G0 F6000 X186.348 Y120.233
G1 F1800 X172.039 Y105.925 E1219.77018
G0 F6000 X172.746 Y105.925
G1 F1800 X186.583 Y119.761 E1220.74642
G0 F6000 X186.819 Y119.291
G1 F1800 X173.454 Y105.925 E1221.68942
G0 F6000 X174.161 Y105.925
G1 F1800 X187.055 Y118.819 E1222.59917
G0 F6000 X187.290 Y118.347
G1 F1800 X174.868 Y105.925 E1223.47561
G0 F6000 X175.575 Y105.925
G1 F1800 X187.526 Y117.876 E1224.31881
G0 F6000 X187.762 Y117.405
G1 F1800 X176.282 Y105.925 E1225.12879
G0 F6000 X176.989 Y105.925
G1 F1800 X187.997 Y116.933 E1225.90546
G0 F6000 X188.233 Y116.462
G1 F1800 X177.696 Y105.925 E1226.64890
G0 F6000 X178.403 Y105.925
G1 F1800 X188.469 Y115.990 E1227.35908
G0 F6000 X188.704 Y115.519
G1 F1800 X179.110 Y105.925 E1228.03599
G0 F6000 X179.817 Y105.925
G1 F1800 X188.941 Y115.048 E1228.67970
G0 F6000 X189.176 Y114.576
G1 F1800 X180.525 Y105.925 E1229.29008
G0 F6000 X181.232 Y105.925
G1 F1800 X189.411 Y114.105 E1229.86718
G0 F6000 X189.648 Y113.634
G1 F1800 X181.939 Y105.925 E1230.41110
G0 F6000 X182.646 Y105.925
G1 F1800 X189.883 Y113.162 E1230.92170
G0 F6000 X190.119 Y112.690
G1 F1800 X183.353 Y105.925 E1231.39905
G0 F6000 X184.060 Y105.925
G1 F1800 X190.355 Y112.219 E1231.84316
G0 F6000 X190.590 Y111.748
G1 F1800 X184.767 Y105.925 E1232.25400
G0 F6000 X185.474 Y105.925
G1 F1800 X190.826 Y111.276 E1232.63158
G0 F6000 X191.062 Y110.805
G1 F1800 X186.181 Y105.925 E1232.97593
G0 F6000 X186.889 Y105.925
G1 F1800 X191.297 Y110.334 E1233.28697
G0 F6000 X191.533 Y109.862
G1 F1800 X187.596 Y105.925 E1233.56475
G0 F6000 X188.303 Y105.925
G1 F1800 X191.769 Y109.391 E1233.80929
G0 F6000 X192.004 Y108.919
G1 F1800 X189.010 Y105.925 E1234.02053
G0 F6000 X189.717 Y105.925
G1 F1800 X192.240 Y108.448 E1234.19854
G0 F6000 X192.476 Y107.977
G1 F1800 X190.424 Y105.925 E1234.34332
G0 F6000 X191.131 Y105.925
G1 F1800 X192.712 Y107.505 E1234.45484
G0 F6000 X192.947 Y107.034
G1 F1800 X191.838 Y105.925 E1234.53308
G0 F6000 X192.545 Y105.925
G1 F1800 X193.301 Y106.327 E1234.57802
G1 X193.252 Y105.925 E1234.59823
M107
G1 F2400 E1226.59823
G0 F6000 X193.252 Y105.925 Z5.600
; Default end code
;G1 X0 Y0 Z130 ; Get extruder out of way. Uncomment to use!
M107 ; Turn off fan
; Disable all extruder
G91 ; Relative positioning
T0
G1 E-1 ; Reduce filament pressure
M104 T0 S0
G90 ; Absolute positioning
G92 E0 ; Reset extruder position
M140 S0 ; Disable heated bed
M84 ; Turn steppers off

